<?xml version="1.0" encoding="UTF-8" standalone="no"?>
<svg
   width="343.39844pt"
   height="49.547531pt"
   viewBox="0 0 343.39844 49.547531"
   version="1.2"
   id="svg947"
   xmlns:xlink="http://www.w3.org/1999/xlink"
   xmlns="http://www.w3.org/2000/svg"
   xmlns:svg="http://www.w3.org/2000/svg">
  <defs
     id="defs196">
    <g
       id="g179">
      <symbol
         overflow="visible"
         id="glyph0-0">
        <path
           style="stroke:none"
           d=""
           id="path2" />
      </symbol>
      <symbol
         overflow="visible"
         id="glyph0-1">
        <path
           style="stroke:none"
           d="M 2.546875,2.5 V 2.09375 h -0.96875 v -9.171875 h 0.96875 v -0.40625 h -1.375 V 2.5 Z m 0,0"
           id="path5" />
      </symbol>
      <symbol
         overflow="visible"
         id="glyph0-2">
        <path
           style="stroke:none"
           d="M 1.671875,-3.3125 V -4.40625 L 0.28125,-4.296875 v 0.3125 c 0.703125,0 0.78125,0.0625 0.78125,0.5625 V -0.75 c 0,0.4375 -0.109375,0.4375 -0.78125,0.4375 V 0 c 0.390625,-0.015625 0.859375,-0.03125 1.140625,-0.03125 0.390625,0 0.859375,0 1.265625,0.03125 V -0.3125 H 2.46875 c -0.734375,0 -0.75,-0.109375 -0.75,-0.46875 V -2.3125 c 0,-0.984375 0.421875,-1.875 1.171875,-1.875 0.0625,0 0.09375,0 0.109375,0.015625 -0.03125,0 -0.234375,0.125 -0.234375,0.390625 0,0.265625 0.21875,0.421875 0.4375,0.421875 0.171875,0 0.421875,-0.125 0.421875,-0.4375 0,-0.3125 -0.3125,-0.609375 -0.734375,-0.609375 -0.734375,0 -1.09375,0.671875 -1.21875,1.09375 z m 0,0"
           id="path8" />
      </symbol>
      <symbol
         overflow="visible"
         id="glyph0-3">
        <path
           style="stroke:none"
           d="M 1.109375,-2.515625 C 1.171875,-4 2.015625,-4.25 2.359375,-4.25 c 1.015625,0 1.125,1.34375 1.125,1.734375 z m 0,0.21875 h 2.78125 c 0.21875,0 0.25,0 0.25,-0.21875 0,-0.984375 -0.546875,-1.953125 -1.78125,-1.953125 -1.15625,0 -2.078125,1.03125 -2.078125,2.28125 0,1.328125 1.046875,2.296875 2.1875,2.296875 C 3.6875,0.109375 4.140625,-1 4.140625,-1.1875 4.140625,-1.28125 4.0625,-1.3125 4,-1.3125 c -0.078125,0 -0.109375,0.0625 -0.125,0.140625 -0.34375,1.03125 -1.25,1.03125 -1.34375,1.03125 -0.5,0 -0.890625,-0.296875 -1.125,-0.671875 -0.296875,-0.46875 -0.296875,-1.125 -0.296875,-1.484375 z m 0,0"
           id="path11" />
      </symbol>
      <symbol
         overflow="visible"
         id="glyph0-4">
        <path
           style="stroke:none"
           d="m 1.171875,-2.171875 c 0,-1.625 0.8125,-2.046875 1.34375,-2.046875 0.09375,0 0.71875,0.015625 1.0625,0.375 -0.40625,0.03125 -0.46875,0.328125 -0.46875,0.453125 0,0.265625 0.1875,0.453125 0.453125,0.453125 0.265625,0 0.46875,-0.15625 0.46875,-0.46875 0,-0.671875 -0.765625,-1.0625 -1.53125,-1.0625 -1.25,0 -2.15625,1.078125 -2.15625,2.3125 0,1.28125 0.984375,2.265625 2.140625,2.265625 1.328125,0 1.65625,-1.203125 1.65625,-1.296875 0,-0.09375 -0.109375,-0.09375 -0.140625,-0.09375 -0.078125,0 -0.109375,0.03125 -0.125,0.09375 -0.28125,0.921875 -0.9375,1.046875 -1.296875,1.046875 -0.53125,0 -1.40625,-0.421875 -1.40625,-2.03125 z m 0,0"
           id="path14" />
      </symbol>
      <symbol
         overflow="visible"
         id="glyph0-5">
        <path
           style="stroke:none"
           d="m 1.71875,-3.984375 h 1.4375 v -0.3125 H 1.71875 V -6.125 h -0.25 c 0,0.8125 -0.296875,1.875 -1.28125,1.921875 v 0.21875 h 0.84375 v 2.75 c 0,1.21875 0.9375,1.34375 1.296875,1.34375 0.703125,0 0.984375,-0.703125 0.984375,-1.34375 v -0.5625 h -0.25 V -1.25 c 0,0.734375 -0.296875,1.109375 -0.671875,1.109375 -0.671875,0 -0.671875,-0.90625 -0.671875,-1.078125 z m 0,0"
           id="path17" />
      </symbol>
      <symbol
         overflow="visible"
         id="glyph0-6">
        <path
           style="stroke:none"
           d="m 3.3125,-0.75 c 0.046875,0.390625 0.3125,0.8125 0.78125,0.8125 0.21875,0 0.828125,-0.140625 0.828125,-0.953125 v -0.5625 h -0.25 v 0.5625 c 0,0.578125 -0.25,0.640625 -0.359375,0.640625 -0.328125,0 -0.375,-0.453125 -0.375,-0.5 v -1.984375 c 0,-0.421875 0,-0.8125 -0.359375,-1.1875 C 3.1875,-4.3125 2.6875,-4.46875 2.21875,-4.46875 c -0.828125,0 -1.515625,0.46875 -1.515625,1.125 0,0.296875 0.203125,0.46875 0.46875,0.46875 0.28125,0 0.453125,-0.203125 0.453125,-0.453125 0,-0.125 -0.046875,-0.453125 -0.515625,-0.453125 C 1.390625,-4.140625 1.875,-4.25 2.1875,-4.25 c 0.5,0 1.0625,0.390625 1.0625,1.28125 v 0.359375 c -0.515625,0.03125 -1.203125,0.0625 -1.828125,0.359375 -0.75,0.34375 -1,0.859375 -1,1.296875 0,0.8125 0.96875,1.0625 1.59375,1.0625 0.65625,0 1.109375,-0.40625 1.296875,-0.859375 z M 3.25,-2.390625 v 1 c 0,0.9375 -0.71875,1.28125 -1.171875,1.28125 -0.484375,0 -0.890625,-0.34375 -0.890625,-0.84375 0,-0.546875 0.421875,-1.375 2.0625,-1.4375 z m 0,0"
           id="path20" />
      </symbol>
      <symbol
         overflow="visible"
         id="glyph0-7">
        <path
           style="stroke:none"
           d="M 1.09375,-3.421875 V -0.75 c 0,0.4375 -0.109375,0.4375 -0.78125,0.4375 V 0 c 0.359375,-0.015625 0.859375,-0.03125 1.140625,-0.03125 0.25,0 0.765625,0.015625 1.109375,0.03125 v -0.3125 c -0.671875,0 -0.78125,0 -0.78125,-0.4375 V -2.59375 C 1.78125,-3.625 2.5,-4.1875 3.125,-4.1875 c 0.640625,0 0.75,0.53125 0.75,1.109375 V -0.75 c 0,0.4375 -0.109375,0.4375 -0.78125,0.4375 V 0 c 0.34375,-0.015625 0.859375,-0.03125 1.125,-0.03125 0.25,0 0.78125,0.015625 1.109375,0.03125 v -0.3125 c -0.515625,0 -0.765625,0 -0.765625,-0.296875 v -1.90625 c 0,-0.859375 0,-1.15625 -0.3125,-1.515625 -0.140625,-0.171875 -0.46875,-0.375 -1.046875,-0.375 C 2.46875,-4.40625 2,-3.984375 1.71875,-3.359375 V -4.40625 L 0.3125,-4.296875 v 0.3125 c 0.703125,0 0.78125,0.0625 0.78125,0.5625 z m 0,0"
           id="path23" />
      </symbol>
      <symbol
         overflow="visible"
         id="glyph0-8">
        <path
           style="stroke:none"
           d="m 2.21875,-1.71875 c -0.875,0 -0.875,-1 -0.875,-1.21875 0,-0.265625 0.015625,-0.59375 0.15625,-0.84375 0.078125,-0.109375 0.3125,-0.390625 0.71875,-0.390625 0.859375,0 0.859375,0.984375 0.859375,1.21875 0,0.265625 0,0.59375 -0.15625,0.84375 C 2.84375,-2 2.609375,-1.71875 2.21875,-1.71875 Z M 1.0625,-1.328125 c 0,-0.03125 0,-0.265625 0.15625,-0.46875 0.390625,0.28125 0.8125,0.3125 1,0.3125 0.921875,0 1.609375,-0.6875 1.609375,-1.453125 0,-0.375 -0.15625,-0.734375 -0.40625,-0.96875 C 3.78125,-4.25 4.140625,-4.296875 4.3125,-4.296875 c 0.03125,0 0.078125,0 0.109375,0.015625 C 4.3125,-4.25 4.25,-4.140625 4.25,-4.015625 c 0,0.171875 0.140625,0.28125 0.296875,0.28125 0.09375,0 0.28125,-0.0625 0.28125,-0.296875 0,-0.171875 -0.109375,-0.484375 -0.5,-0.484375 -0.203125,0 -0.640625,0.0625 -1.0625,0.46875 C 2.84375,-4.375 2.4375,-4.40625 2.21875,-4.40625 c -0.9375,0 -1.625,0.6875 -1.625,1.453125 0,0.4375 0.21875,0.8125 0.46875,1.03125 -0.125,0.140625 -0.3125,0.46875 -0.3125,0.828125 0,0.3125 0.140625,0.6875 0.453125,0.890625 -0.609375,0.15625 -0.921875,0.59375 -0.921875,0.984375 0,0.71875 0.984375,1.265625 2.203125,1.265625 1.171875,0 2.203125,-0.5 2.203125,-1.28125 0,-0.34375 -0.125,-0.859375 -0.640625,-1.140625 -0.53125,-0.265625 -1.109375,-0.265625 -1.71875,-0.265625 -0.25,0 -0.671875,0 -0.75,-0.015625 C 1.265625,-0.703125 1.0625,-1 1.0625,-1.328125 Z M 2.5,1.828125 c -1.015625,0 -1.703125,-0.515625 -1.703125,-1.046875 0,-0.453125 0.375,-0.828125 0.8125,-0.84375 h 0.59375 c 0.859375,0 1.96875,0 1.96875,0.84375 0,0.546875 -0.703125,1.046875 -1.671875,1.046875 z m 0,0"
           id="path26" />
      </symbol>
      <symbol
         overflow="visible"
         id="glyph0-9">
        <path
           style="stroke:none"
           d="M 1.765625,-6.921875 0.328125,-6.8125 V -6.5 c 0.703125,0 0.78125,0.0625 0.78125,0.5625 V -0.75 c 0,0.4375 -0.109375,0.4375 -0.78125,0.4375 V 0 C 0.65625,-0.015625 1.1875,-0.03125 1.4375,-0.03125 c 0.25,0 0.734375,0.015625 1.109375,0.03125 v -0.3125 c -0.671875,0 -0.78125,0 -0.78125,-0.4375 z m 0,0"
           id="path29" />
      </symbol>
      <symbol
         overflow="visible"
         id="glyph0-10">
        <path
           style="stroke:none"
           d="M 1.578125,-7.484375 H 0.21875 v 0.40625 H 1.1875 V 2.09375 H 0.21875 V 2.5 h 1.359375 z m 0,0"
           id="path32" />
      </symbol>
      <symbol
         overflow="visible"
         id="glyph0-11">
        <path
           style="stroke:none"
           d="m 3.296875,2.390625 c 0,-0.03125 0,-0.046875 -0.171875,-0.21875 C 1.890625,0.921875 1.5625,-0.96875 1.5625,-2.5 c 0,-1.734375 0.375,-3.46875 1.609375,-4.703125 0.125,-0.125 0.125,-0.140625 0.125,-0.171875 0,-0.078125 -0.03125,-0.109375 -0.09375,-0.109375 -0.109375,0 -1,0.6875 -1.59375,1.953125 -0.5,1.09375 -0.625,2.203125 -0.625,3.03125 0,0.78125 0.109375,1.984375 0.65625,3.125 C 2.25,1.84375 3.09375,2.5 3.203125,2.5 c 0.0625,0 0.09375,-0.03125 0.09375,-0.109375 z m 0,0"
           id="path35" />
      </symbol>
      <symbol
         overflow="visible"
         id="glyph0-12">
        <path
           style="stroke:none"
           d="M 1.765625,-4.40625 0.375,-4.296875 v 0.3125 c 0.640625,0 0.734375,0.0625 0.734375,0.546875 V -0.75 c 0,0.4375 -0.109375,0.4375 -0.78125,0.4375 V 0 C 0.640625,-0.015625 1.1875,-0.03125 1.421875,-0.03125 1.78125,-0.03125 2.125,-0.015625 2.46875,0 v -0.3125 c -0.671875,0 -0.703125,-0.046875 -0.703125,-0.4375 z m 0.03125,-1.734375 c 0,-0.3125 -0.234375,-0.53125 -0.515625,-0.53125 -0.3125,0 -0.53125,0.265625 -0.53125,0.53125 0,0.265625 0.21875,0.53125 0.53125,0.53125 0.28125,0 0.515625,-0.21875 0.515625,-0.53125 z m 0,0"
           id="path38" />
      </symbol>
      <symbol
         overflow="visible"
         id="glyph0-13">
        <path
           style="stroke:none"
           d="m 1.71875,-3.75 v -0.65625 l -1.4375,0.109375 v 0.3125 c 0.703125,0 0.78125,0.0625 0.78125,0.5 v 4.65625 C 1.0625,1.625 0.953125,1.625 0.28125,1.625 V 1.9375 C 0.625,1.921875 1.140625,1.90625 1.390625,1.90625 c 0.28125,0 0.78125,0.015625 1.125,0.03125 V 1.625 C 1.859375,1.625 1.75,1.625 1.75,1.171875 V -0.59375 c 0.046875,0.171875 0.46875,0.703125 1.21875,0.703125 1.1875,0 2.21875,-0.984375 2.21875,-2.265625 0,-1.265625 -0.953125,-2.25 -2.078125,-2.25 -0.78125,0 -1.203125,0.4375 -1.390625,0.65625 z M 1.75,-1.140625 v -2.21875 C 2.03125,-3.875 2.515625,-4.15625 3.03125,-4.15625 c 0.734375,0 1.328125,0.875 1.328125,2 0,1.203125 -0.6875,2.046875 -1.421875,2.046875 -0.40625,0 -0.78125,-0.203125 -1.046875,-0.609375 C 1.75,-0.921875 1.75,-0.9375 1.75,-1.140625 Z m 0,0"
           id="path41" />
      </symbol>
      <symbol
         overflow="visible"
         id="glyph0-14">
        <path
           style="stroke:none"
           d="M 3.890625,-0.78125 V 0.109375 L 5.328125,0 V -0.3125 C 4.640625,-0.3125 4.5625,-0.375 4.5625,-0.875 v -3.53125 l -1.46875,0.109375 v 0.3125 c 0.6875,0 0.78125,0.0625 0.78125,0.5625 v 1.765625 c 0,0.875 -0.484375,1.546875 -1.21875,1.546875 -0.828125,0 -0.875,-0.46875 -0.875,-0.984375 v -3.3125 L 0.3125,-4.296875 v 0.3125 c 0.78125,0 0.78125,0.03125 0.78125,0.90625 v 1.5 c 0,0.78125 0,1.6875 1.515625,1.6875 0.5625,0 1,-0.28125 1.28125,-0.890625 z m 0,0"
           id="path44" />
      </symbol>
      <symbol
         overflow="visible"
         id="glyph0-15">
        <path
           style="stroke:none"
           d="m 2.875,-2.5 c 0,-0.765625 -0.109375,-1.96875 -0.65625,-3.109375 -0.59375,-1.21875 -1.453125,-1.875 -1.546875,-1.875 -0.0625,0 -0.109375,0.046875 -0.109375,0.109375 0,0.03125 0,0.046875 0.1875,0.234375 0.984375,0.984375 1.546875,2.5625 1.546875,4.640625 0,1.71875 -0.359375,3.46875 -1.59375,4.71875 C 0.5625,2.34375 0.5625,2.359375 0.5625,2.390625 0.5625,2.453125 0.609375,2.5 0.671875,2.5 0.765625,2.5 1.671875,1.8125 2.25,0.546875 2.765625,-0.546875 2.875,-1.65625 2.875,-2.5 Z m 0,0"
           id="path47" />
      </symbol>
      <symbol
         overflow="visible"
         id="glyph0-16">
        <path
           style="stroke:none"
           d="m 2.9375,-6.375 c 0,-0.25 0,-0.265625 -0.234375,-0.265625 C 2.078125,-6 1.203125,-6 0.890625,-6 v 0.3125 c 0.203125,0 0.78125,0 1.296875,-0.265625 v 5.171875 c 0,0.359375 -0.03125,0.46875 -0.921875,0.46875 h -0.3125 V 0 c 0.34375,-0.03125 1.203125,-0.03125 1.609375,-0.03125 0.390625,0 1.265625,0 1.609375,0.03125 v -0.3125 h -0.3125 c -0.90625,0 -0.921875,-0.109375 -0.921875,-0.46875 z m 0,0"
           id="path50" />
      </symbol>
      <symbol
         overflow="visible"
         id="glyph0-17">
        <path
           style="stroke:none"
           d="m 1.90625,-0.53125 c 0,-0.28125 -0.234375,-0.53125 -0.515625,-0.53125 -0.296875,0 -0.53125,0.25 -0.53125,0.53125 C 0.859375,-0.234375 1.09375,0 1.390625,0 1.671875,0 1.90625,-0.234375 1.90625,-0.53125 Z m 0,0"
           id="path53" />
      </symbol>
      <symbol
         overflow="visible"
         id="glyph0-18">
        <path
           style="stroke:none"
           d="m 4.578125,-3.1875 c 0,-0.796875 -0.046875,-1.59375 -0.390625,-2.328125 -0.453125,-0.96875 -1.28125,-1.125 -1.6875,-1.125 -0.609375,0 -1.328125,0.265625 -1.75,1.1875 -0.3125,0.6875 -0.359375,1.46875 -0.359375,2.265625 0,0.75 0.03125,1.640625 0.453125,2.40625 0.421875,0.796875 1.15625,1 1.640625,1 0.53125,0 1.296875,-0.203125 1.734375,-1.15625 0.3125,-0.6875 0.359375,-1.46875 0.359375,-2.25 z M 2.484375,0 C 2.09375,0 1.5,-0.25 1.328125,-1.203125 1.21875,-1.796875 1.21875,-2.71875 1.21875,-3.3125 c 0,-0.640625 0,-1.296875 0.078125,-1.828125 0.1875,-1.1875 0.9375,-1.28125 1.1875,-1.28125 0.328125,0 0.984375,0.1875 1.171875,1.171875 0.109375,0.5625 0.109375,1.3125 0.109375,1.9375 0,0.75 0,1.421875 -0.109375,2.0625 C 3.5,-0.296875 2.9375,0 2.484375,0 Z m 0,0"
           id="path56" />
      </symbol>
      <symbol
         overflow="visible"
         id="glyph0-19">
        <path
           style="stroke:none"
           d="m 2.03125,-0.015625 c 0,-0.625 -0.25,-1.046875 -0.640625,-1.046875 -0.359375,0 -0.53125,0.28125 -0.53125,0.53125 0,0.265625 0.171875,0.53125 0.53125,0.53125 0.15625,0 0.28125,-0.0625 0.375,-0.140625 L 1.78125,-0.15625 c 0.015625,0 0.015625,0 0.015625,0.140625 0,0.640625 -0.265625,1.25 -0.703125,1.71875 -0.0625,0.0625 -0.078125,0.078125 -0.078125,0.109375 0,0.078125 0.046875,0.109375 0.09375,0.109375 0.125,0 0.921875,-0.78125 0.921875,-1.9375 z m 0,0"
           id="path59" />
      </symbol>
      <symbol
         overflow="visible"
         id="glyph0-20">
        <path
           style="stroke:none"
           d="m 4.46875,-2 c 0,-1.1875 -0.8125,-2.1875 -1.890625,-2.1875 -0.46875,0 -0.90625,0.15625 -1.265625,0.515625 V -5.625 c 0.203125,0.0625 0.53125,0.125 0.84375,0.125 1.234375,0 1.9375,-0.90625 1.9375,-1.03125 0,-0.0625 -0.03125,-0.109375 -0.109375,-0.109375 0,0 -0.03125,0 -0.078125,0.03125 C 3.703125,-6.515625 3.21875,-6.3125 2.546875,-6.3125 2.15625,-6.3125 1.6875,-6.390625 1.21875,-6.59375 1.140625,-6.625 1.125,-6.625 1.109375,-6.625 1,-6.625 1,-6.546875 1,-6.390625 V -3.4375 c 0,0.171875 0,0.25 0.140625,0.25 0.078125,0 0.09375,-0.015625 0.140625,-0.078125 C 1.390625,-3.421875 1.75,-3.96875 2.5625,-3.96875 c 0.515625,0 0.765625,0.453125 0.84375,0.640625 0.15625,0.375 0.1875,0.75 0.1875,1.25 0,0.359375 0,0.953125 -0.25,1.375 C 3.109375,-0.3125 2.734375,-0.0625 2.28125,-0.0625 c -0.71875,0 -1.296875,-0.53125 -1.46875,-1.109375 0.03125,0 0.0625,0.015625 0.171875,0.015625 0.328125,0 0.5,-0.25 0.5,-0.484375 0,-0.25 -0.171875,-0.5 -0.5,-0.5 C 0.84375,-2.140625 0.5,-2.0625 0.5,-1.609375 0.5,-0.75 1.1875,0.21875 2.296875,0.21875 3.453125,0.21875 4.46875,-0.734375 4.46875,-2 Z m 0,0"
           id="path62" />
      </symbol>
      <symbol
         overflow="visible"
         id="glyph0-21">
        <path
           style="stroke:none"
           d="m 5.796875,-6.78125 h -5.46875 v 0.3125 H 0.5625 c 0.765625,0 0.796875,0.109375 0.796875,0.46875 v 5.21875 c 0,0.359375 -0.03125,0.46875 -0.796875,0.46875 H 0.328125 V 0 c 0.34375,-0.03125 1.125,-0.03125 1.515625,-0.03125 0.40625,0 1.3125,0 1.671875,0.03125 V -0.3125 H 3.1875 C 2.25,-0.3125 2.25,-0.4375 2.25,-0.78125 v -2.453125 h 0.84375 c 0.96875,0 1.0625,0.3125 1.0625,1.15625 h 0.25 V -4.71875 h -0.25 c 0,0.84375 -0.09375,1.171875 -1.0625,1.171875 H 2.25 v -2.53125 c 0,-0.328125 0.015625,-0.390625 0.484375,-0.390625 h 1.1875 c 1.5,0 1.75,0.5625 1.90625,1.9375 h 0.25 z m 0,0"
           id="path65" />
      </symbol>
      <symbol
         overflow="visible"
         id="glyph0-22">
        <path
           style="stroke:none"
           d="m 2.078125,-1.9375 c 0.21875,0.046875 1.03125,0.203125 1.03125,0.921875 0,0.5 -0.34375,0.90625 -1.125,0.90625 -0.84375,0 -1.203125,-0.5625 -1.390625,-1.421875 C 0.5625,-1.65625 0.5625,-1.6875 0.453125,-1.6875 c -0.125,0 -0.125,0.0625 -0.125,0.234375 V -0.125 c 0,0.171875 0,0.234375 0.109375,0.234375 0.046875,0 0.0625,-0.015625 0.25,-0.203125 0.015625,-0.015625 0.015625,-0.03125 0.203125,-0.21875 0.4375,0.40625 0.890625,0.421875 1.09375,0.421875 1.140625,0 1.609375,-0.671875 1.609375,-1.390625 0,-0.515625 -0.296875,-0.828125 -0.421875,-0.9375 C 2.84375,-2.546875 2.453125,-2.625 2.03125,-2.703125 1.46875,-2.8125 0.8125,-2.9375 0.8125,-3.515625 c 0,-0.359375 0.25,-0.765625 1.109375,-0.765625 1.09375,0 1.15625,0.90625 1.171875,1.203125 0,0.09375 0.09375,0.09375 0.109375,0.09375 0.140625,0 0.140625,-0.046875 0.140625,-0.234375 v -1.015625 c 0,-0.15625 0,-0.234375 -0.109375,-0.234375 -0.046875,0 -0.078125,0 -0.203125,0.125 -0.03125,0.03125 -0.125,0.125 -0.171875,0.15625 -0.375,-0.28125 -0.78125,-0.28125 -0.9375,-0.28125 -1.21875,0 -1.59375,0.671875 -1.59375,1.234375 0,0.34375 0.15625,0.625 0.421875,0.84375 0.328125,0.25 0.609375,0.3125 1.328125,0.453125 z m 0,0"
           id="path68" />
      </symbol>
      <symbol
         overflow="visible"
         id="glyph0-23">
        <path
           style="stroke:none"
           d="m 1.90625,-3.765625 c 0,-0.296875 -0.234375,-0.53125 -0.515625,-0.53125 -0.296875,0 -0.53125,0.234375 -0.53125,0.53125 0,0.28125 0.234375,0.53125 0.53125,0.53125 0.28125,0 0.515625,-0.25 0.515625,-0.53125 z m -0.1875,3.65625 c 0,0.28125 0,1.0625 -0.625,1.796875 -0.078125,0.078125 -0.078125,0.09375 -0.078125,0.125 0,0.078125 0.046875,0.109375 0.09375,0.109375 0.109375,0 0.828125,-0.796875 0.828125,-1.953125 0,-0.28125 -0.015625,-1.03125 -0.546875,-1.03125 -0.359375,0 -0.53125,0.28125 -0.53125,0.53125 C 0.859375,-0.265625 1.03125,0 1.390625,0 1.4375,0 1.453125,0 1.46875,-0.015625 c 0.0625,0 0.171875,-0.03125 0.25,-0.09375 z m 0,0"
           id="path71" />
      </symbol>
      <symbol
         overflow="visible"
         id="glyph0-24">
        <path
           style="stroke:none"
           d="m 1.09375,-0.75 c 0,0.4375 -0.109375,0.4375 -0.78125,0.4375 V 0 c 0.359375,-0.015625 0.859375,-0.03125 1.140625,-0.03125 0.25,0 0.765625,0.015625 1.109375,0.03125 v -0.3125 c -0.671875,0 -0.78125,0 -0.78125,-0.4375 V -2.59375 C 1.78125,-3.625 2.5,-4.1875 3.125,-4.1875 c 0.640625,0 0.75,0.53125 0.75,1.109375 V -0.75 c 0,0.4375 -0.109375,0.4375 -0.78125,0.4375 V 0 c 0.34375,-0.015625 0.859375,-0.03125 1.125,-0.03125 0.25,0 0.78125,0.015625 1.109375,0.03125 v -0.3125 c -0.515625,0 -0.765625,0 -0.765625,-0.296875 v -1.90625 c 0,-0.859375 0,-1.15625 -0.3125,-1.515625 -0.140625,-0.171875 -0.46875,-0.375 -1.046875,-0.375 -0.84375,0 -1.28125,0.59375 -1.453125,0.984375 v -3.5 L 0.3125,-6.8125 V -6.5 c 0.703125,0 0.78125,0.0625 0.78125,0.5625 z m 0,0"
           id="path74" />
      </symbol>
      <symbol
         overflow="visible"
         id="glyph0-25">
        <path
           style="stroke:none"
           d="m 6.84375,-3.265625 c 0.15625,0 0.34375,0 0.34375,-0.1875 C 7.1875,-3.65625 7,-3.65625 6.859375,-3.65625 h -5.96875 c -0.140625,0 -0.328125,0 -0.328125,0.203125 0,0.1875 0.1875,0.1875 0.328125,0.1875 z m 0.015625,1.9375 c 0.140625,0 0.328125,0 0.328125,-0.203125 0,-0.1875 -0.1875,-0.1875 -0.34375,-0.1875 H 0.890625 c -0.140625,0 -0.328125,0 -0.328125,0.1875 0,0.203125 0.1875,0.203125 0.328125,0.203125 z m 0,0"
           id="path77" />
      </symbol>
      <symbol
         overflow="visible"
         id="glyph0-26">
        <path
           style="stroke:none"
           d="M 4.6875,-2.140625 C 4.6875,-3.40625 3.703125,-4.46875 2.5,-4.46875 c -1.25,0 -2.21875,1.09375 -2.21875,2.328125 0,1.296875 1.03125,2.25 2.203125,2.25 1.203125,0 2.203125,-0.984375 2.203125,-2.25 z m -2.1875,2 c -0.4375,0 -0.875,-0.203125 -1.140625,-0.671875 -0.25,-0.4375 -0.25,-1.046875 -0.25,-1.40625 0,-0.390625 0,-0.921875 0.234375,-1.359375 C 1.609375,-4.03125 2.078125,-4.25 2.484375,-4.25 c 0.4375,0 0.859375,0.21875 1.125,0.65625 0.265625,0.421875 0.265625,1 0.265625,1.375 0,0.359375 0,0.90625 -0.21875,1.34375 C 3.421875,-0.421875 2.984375,-0.140625 2.5,-0.140625 Z m 0,0"
           id="path80" />
      </symbol>
      <symbol
         overflow="visible"
         id="glyph0-27">
        <path
           style="stroke:none"
           d="m 1.75,-4.296875 v -1.15625 c 0,-0.875 0.46875,-1.359375 0.90625,-1.359375 0.03125,0 0.1875,0 0.328125,0.078125 C 2.875,-6.703125 2.6875,-6.5625 2.6875,-6.3125 c 0,0.21875 0.15625,0.421875 0.4375,0.421875 0.28125,0 0.4375,-0.203125 0.4375,-0.4375 0,-0.375 -0.375,-0.703125 -0.90625,-0.703125 -0.6875,0 -1.546875,0.53125 -1.546875,1.59375 v 1.140625 h -0.78125 v 0.3125 h 0.78125 V -0.75 C 1.109375,-0.3125 1,-0.3125 0.34375,-0.3125 V 0 c 0.390625,-0.015625 0.859375,-0.03125 1.125,-0.03125 0.40625,0 0.875,0 1.265625,0.03125 V -0.3125 H 2.53125 c -0.734375,0 -0.75,-0.109375 -0.75,-0.46875 v -3.203125 h 1.125 v -0.3125 z m 0,0"
           id="path83" />
      </symbol>
      <symbol
         overflow="visible"
         id="glyph0-28">
        <path
           style="stroke:none"
           d="m 2.9375,-1.640625 v 0.859375 c 0,0.359375 -0.03125,0.46875 -0.765625,0.46875 H 1.96875 V 0 C 2.375,-0.03125 2.890625,-0.03125 3.3125,-0.03125 c 0.421875,0 0.9375,0 1.359375,0.03125 v -0.3125 h -0.21875 c -0.734375,0 -0.75,-0.109375 -0.75,-0.46875 V -1.640625 H 4.6875 v -0.3125 H 3.703125 v -4.53125 c 0,-0.203125 0,-0.265625 -0.171875,-0.265625 -0.078125,0 -0.109375,0 -0.1875,0.125 l -3.0625,4.671875 v 0.3125 z m 0.046875,-0.3125 H 0.5625 l 2.421875,-3.71875 z m 0,0"
           id="path86" />
      </symbol>
      <symbol
         overflow="visible"
         id="glyph0-29">
        <path
           style="stroke:none"
           d="m 5.796875,-2.578125 h -0.25 c -0.109375,1.015625 -0.25,2.265625 -2,2.265625 h -0.8125 C 2.265625,-0.3125 2.25,-0.375 2.25,-0.703125 v -5.3125 C 2.25,-6.359375 2.25,-6.5 3.1875,-6.5 H 3.515625 V -6.8125 C 3.15625,-6.78125 2.25,-6.78125 1.84375,-6.78125 c -0.390625,0 -1.171875,0 -1.515625,-0.03125 V -6.5 H 0.5625 c 0.765625,0 0.796875,0.109375 0.796875,0.46875 v 5.25 c 0,0.359375 -0.03125,0.46875 -0.796875,0.46875 H 0.328125 V 0 h 5.1875 z m 0,0"
           id="path89" />
      </symbol>
      <symbol
         overflow="visible"
         id="glyph0-30">
        <path
           style="stroke:none"
           d="m 1.71875,-3.765625 v -3.15625 L 0.28125,-6.8125 V -6.5 c 0.703125,0 0.78125,0.0625 0.78125,0.5625 V 0 h 0.25 c 0,-0.015625 0.078125,-0.15625 0.359375,-0.625 0.140625,0.234375 0.5625,0.734375 1.296875,0.734375 1.1875,0 2.21875,-0.984375 2.21875,-2.265625 0,-1.265625 -0.96875,-2.25 -2.109375,-2.25 -0.78125,0 -1.203125,0.46875 -1.359375,0.640625 z m 0.03125,2.625 V -3.1875 c 0,-0.1875 0,-0.203125 0.109375,-0.359375 C 2.25,-4.109375 2.796875,-4.1875 3.03125,-4.1875 c 0.453125,0 0.8125,0.265625 1.046875,0.640625 0.265625,0.40625 0.28125,0.96875 0.28125,1.390625 0,0.359375 -0.015625,0.953125 -0.296875,1.40625 -0.21875,0.3125 -0.59375,0.640625 -1.125,0.640625 -0.453125,0 -0.8125,-0.234375 -1.046875,-0.609375 C 1.75,-0.921875 1.75,-0.953125 1.75,-1.140625 Z m 0,0"
           id="path92" />
      </symbol>
      <symbol
         overflow="visible"
         id="glyph0-31">
        <path
           style="stroke:none"
           d="m 6.171875,-3.34375 c 0.171875,-0.5 0.484375,-0.640625 0.84375,-0.640625 v -0.3125 C 6.78125,-4.28125 6.5,-4.265625 6.28125,-4.265625 c -0.296875,0 -0.734375,-0.015625 -0.921875,-0.03125 v 0.3125 c 0.359375,0 0.578125,0.1875 0.578125,0.46875 0,0.0625 0,0.09375 -0.0625,0.21875 L 4.96875,-0.75 3.984375,-3.53125 C 3.953125,-3.65625 3.9375,-3.671875 3.9375,-3.71875 c 0,-0.265625 0.390625,-0.265625 0.59375,-0.265625 v -0.3125 c -0.296875,0.015625 -0.796875,0.03125 -1.046875,0.03125 -0.296875,0 -0.578125,-0.015625 -0.875,-0.03125 v 0.3125 c 0.359375,0 0.515625,0.015625 0.625,0.140625 0.046875,0.0625 0.15625,0.359375 0.21875,0.546875 L 2.609375,-0.875 1.65625,-3.53125 C 1.609375,-3.65625 1.609375,-3.671875 1.609375,-3.71875 1.609375,-3.984375 2,-3.984375 2.1875,-3.984375 v -0.3125 c -0.296875,0.015625 -0.859375,0.03125 -1.078125,0.03125 -0.046875,0 -0.578125,-0.015625 -0.9375,-0.03125 v 0.3125 c 0.5,0 0.625,0.03125 0.75,0.34375 l 1.25,3.53125 C 2.21875,0.03125 2.25,0.109375 2.375,0.109375 c 0.140625,0 0.15625,-0.0625 0.203125,-0.203125 l 1.015625,-2.8125 1.015625,2.828125 c 0.03125,0.109375 0.0625,0.1875 0.203125,0.1875 0.125,0 0.15625,-0.09375 0.1875,-0.1875 z m 0,0"
           id="path95" />
      </symbol>
      <symbol
         overflow="visible"
         id="glyph0-32">
        <path
           style="stroke:none"
           d="M 1.09375,-3.421875 V -0.75 c 0,0.4375 -0.109375,0.4375 -0.78125,0.4375 V 0 c 0.359375,-0.015625 0.859375,-0.03125 1.140625,-0.03125 0.25,0 0.765625,0.015625 1.109375,0.03125 v -0.3125 c -0.671875,0 -0.78125,0 -0.78125,-0.4375 V -2.59375 C 1.78125,-3.625 2.5,-4.1875 3.125,-4.1875 c 0.640625,0 0.75,0.53125 0.75,1.109375 V -0.75 c 0,0.4375 -0.109375,0.4375 -0.78125,0.4375 V 0 c 0.34375,-0.015625 0.859375,-0.03125 1.125,-0.03125 0.25,0 0.78125,0.015625 1.109375,0.03125 v -0.3125 c -0.65625,0 -0.765625,0 -0.765625,-0.4375 v -1.84375 c 0,-1.03125 0.703125,-1.59375 1.34375,-1.59375 0.625,0 0.734375,0.53125 0.734375,1.109375 V -0.75 c 0,0.4375 -0.109375,0.4375 -0.78125,0.4375 V 0 c 0.34375,-0.015625 0.859375,-0.03125 1.125,-0.03125 0.265625,0 0.78125,0.015625 1.125,0.03125 v -0.3125 c -0.515625,0 -0.765625,0 -0.78125,-0.296875 v -1.90625 c 0,-0.859375 0,-1.15625 -0.3125,-1.515625 -0.140625,-0.171875 -0.46875,-0.375 -1.046875,-0.375 -0.828125,0 -1.28125,0.59375 -1.4375,0.984375 C 4.390625,-4.296875 3.65625,-4.40625 3.203125,-4.40625 2.46875,-4.40625 2,-3.984375 1.71875,-3.359375 V -4.40625 L 0.3125,-4.296875 v 0.3125 c 0.703125,0 0.78125,0.0625 0.78125,0.5625 z m 0,0"
           id="path98" />
      </symbol>
      <symbol
         overflow="visible"
         id="glyph0-33">
        <path
           style="stroke:none"
           d="m 3.78125,-0.546875 v 0.65625 L 5.25,0 v -0.3125 c -0.6875,0 -0.78125,-0.0625 -0.78125,-0.5625 V -6.921875 L 3.046875,-6.8125 V -6.5 c 0.6875,0 0.765625,0.0625 0.765625,0.5625 v 2.15625 c -0.28125,-0.359375 -0.71875,-0.625 -1.25,-0.625 -1.171875,0 -2.21875,0.984375 -2.21875,2.265625 0,1.265625 0.96875,2.25 2.109375,2.25 0.640625,0 1.078125,-0.34375 1.328125,-0.65625 z m 0,-2.671875 v 2.046875 c 0,0.171875 0,0.1875 -0.109375,0.359375 C 3.375,-0.328125 2.9375,-0.109375 2.5,-0.109375 2.046875,-0.109375 1.6875,-0.375 1.453125,-0.75 1.203125,-1.15625 1.171875,-1.71875 1.171875,-2.140625 1.171875,-2.5 1.1875,-3.09375 1.46875,-3.546875 1.6875,-3.859375 2.0625,-4.1875 2.609375,-4.1875 c 0.34375,0 0.765625,0.15625 1.0625,0.59375 0.109375,0.171875 0.109375,0.1875 0.109375,0.375 z m 0,0"
           id="path101" />
      </symbol>
      <symbol
         overflow="visible"
         id="glyph0-34">
        <path
           style="stroke:none"
           d="M 6.1875,-5.828125 C 6.328125,-6.203125 6.59375,-6.484375 7.28125,-6.5 v -0.3125 c -0.3125,0.03125 -0.71875,0.03125 -0.96875,0.03125 -0.296875,0 -0.875,-0.015625 -1.140625,-0.03125 V -6.5 C 5.6875,-6.484375 5.90625,-6.234375 5.90625,-6 c 0,0.078125 -0.03125,0.140625 -0.046875,0.203125 L 4.03125,-1 2.125,-6.03125 C 2.0625,-6.171875 2.0625,-6.1875 2.0625,-6.203125 2.0625,-6.5 2.625,-6.5 2.875,-6.5 v -0.3125 c -0.359375,0.03125 -1.046875,0.03125 -1.421875,0.03125 -0.46875,0 -0.90625,-0.015625 -1.265625,-0.03125 V -6.5 c 0.65625,0 0.84375,0 0.984375,0.375 L 3.484375,0 c 0.0625,0.1875 0.109375,0.21875 0.25,0.21875 0.15625,0 0.1875,-0.046875 0.234375,-0.1875 z m 0,0"
           id="path104" />
      </symbol>
      <symbol
         overflow="visible"
         id="glyph0-35">
        <path
           style="stroke:none"
           d="m 4.46875,-3.984375 h 1.140625 v -0.3125 H 4.4375 v -1.15625 c 0,-0.890625 0.484375,-1.359375 0.921875,-1.359375 0.03125,0 0.1875,0 0.328125,0.078125 -0.109375,0.03125 -0.296875,0.171875 -0.296875,0.421875 0,0.21875 0.15625,0.421875 0.4375,0.421875 0.28125,0 0.4375,-0.203125 0.4375,-0.4375 0,-0.359375 -0.359375,-0.703125 -0.90625,-0.703125 -0.59375,0 -1.03125,0.375 -1.078125,0.421875 -0.296875,-0.375 -0.859375,-0.421875 -1.125,-0.421875 -0.9375,0 -2.09375,0.515625 -2.09375,1.59375 v 1.140625 H 0.265625 v 0.3125 H 1.0625 V -0.75 c 0,0.4375 -0.109375,0.4375 -0.78125,0.4375 V 0 C 0.609375,-0.015625 1.140625,-0.03125 1.390625,-0.03125 1.640625,-0.03125 2.125,-0.015625 2.5,0 v -0.3125 c -0.671875,0 -0.78125,0 -0.78125,-0.4375 V -3.984375 H 3.8125 V -0.75 c 0,0.4375 -0.109375,0.4375 -0.78125,0.4375 V 0 c 0.390625,-0.015625 0.859375,-0.03125 1.140625,-0.03125 0.390625,0 0.859375,0 1.265625,0.03125 V -0.3125 H 5.21875 c -0.734375,0 -0.75,-0.109375 -0.75,-0.46875 z m -2.78125,-0.3125 v -1.125 c 0,-0.96875 0.8125,-1.390625 1.46875,-1.390625 0.484375,0 0.765625,0.1875 0.765625,0.1875 v 0.015625 C 3.765625,-6.59375 3.5625,-6.453125 3.5625,-6.1875 c 0,0.0625 0,0.3125 0.28125,0.40625 C 3.8125,-5.65625 3.8125,-5.5625 3.8125,-5.4375 v 1.140625 z m 0,0"
           id="path107" />
      </symbol>
      <symbol
         overflow="visible"
         id="glyph0-36">
        <path
           style="stroke:none"
           d="m 3.96875,-6.9375 c -0.046875,-0.125 -0.078125,-0.203125 -0.234375,-0.203125 -0.15625,0 -0.1875,0.0625 -0.234375,0.203125 L 1.4375,-0.984375 C 1.25,-0.46875 0.859375,-0.3125 0.3125,-0.3125 V 0 c 0.234375,-0.015625 0.671875,-0.03125 1.015625,-0.03125 0.3125,0 0.828125,0.015625 1.15625,0.03125 v -0.3125 c -0.5,0 -0.75,-0.25 -0.75,-0.5 0,-0.03125 0.015625,-0.140625 0.015625,-0.15625 L 2.21875,-2.265625 H 4.671875 L 5.203125,-0.75 c 0.015625,0.046875 0.03125,0.109375 0.03125,0.140625 0,0.296875 -0.5625,0.296875 -0.828125,0.296875 V 0 c 0.359375,-0.03125 1.0625,-0.03125 1.4375,-0.03125 0.421875,0 0.890625,0.015625 1.296875,0.03125 V -0.3125 H 6.96875 C 6.375,-0.3125 6.234375,-0.375 6.125,-0.703125 Z m -0.53125,1.109375 1.125,3.25 H 2.328125 Z m 0,0"
           id="path110" />
      </symbol>
      <symbol
         overflow="visible"
         id="glyph0-37">
        <path
           style="stroke:none"
           d="m 5.453125,-6.453125 c 0.0625,-0.109375 0.0625,-0.125 0.0625,-0.203125 0,-0.15625 -0.046875,-0.15625 -0.25,-0.15625 h -4.46875 l -0.109375,2.25 h 0.25 C 1,-5.6875 1.3125,-6.5 2.9375,-6.5 H 4.5 L 0.625,-0.375 C 0.5625,-0.265625 0.5625,-0.25 0.5625,-0.171875 0.5625,0 0.609375,0 0.8125,0 h 4.59375 l 0.171875,-2.65625 h -0.25 C 5.25,-1.28125 5.0625,-0.34375 3.21875,-0.34375 H 1.578125 Z m 0,0"
           id="path113" />
      </symbol>
      <symbol
         overflow="visible"
         id="glyph0-38">
        <path
           style="stroke:none"
           d="M 2.75,-1.859375 V -2.4375 H 0.109375 v 0.578125 z m 0,0"
           id="path116" />
      </symbol>
      <symbol
         overflow="visible"
         id="glyph0-39">
        <path
           style="stroke:none"
           d="m 4.40625,-6.953125 c -0.0625,-0.140625 -0.09375,-0.1875 -0.265625,-0.1875 -0.15625,0 -0.1875,0.046875 -0.25,0.1875 l -3.375,6.75 C 0.46875,-0.109375 0.46875,-0.09375 0.46875,-0.078125 0.46875,0 0.53125,0 0.6875,0 h 6.921875 c 0.15625,0 0.21875,0 0.21875,-0.078125 0,-0.015625 0,-0.03125 -0.046875,-0.125 z m -0.578125,0.8125 2.6875,5.390625 h -5.375 z m 0,0"
           id="path119" />
      </symbol>
      <symbol
         overflow="visible"
         id="glyph1-0">
        <path
           style="stroke:none"
           d=""
           id="path122" />
      </symbol>
      <symbol
         overflow="visible"
         id="glyph1-1">
        <path
           style="stroke:none"
           d="m 3.046875,-5.71875 c 0.1875,0.515625 0.40625,1.265625 0.84375,2.484375 C 4.53125,-1.53125 4.8125,-0.921875 5.40625,0.03125 5.546875,0.234375 5.5625,0.25 5.65625,0.25 5.796875,0.25 6,0.125 6.109375,0.046875 6.25,-0.078125 6.265625,-0.09375 6.375,-0.578125 6.96875,-3.203125 7.71875,-5.9375 7.921875,-6.390625 7.9375,-6.40625 8.140625,-6.78125 9.359375,-6.8125 9.5625,-6.8125 9.75,-7.34375 9.75,-7.5625 c 0,-0.15625 -0.0625,-0.15625 -0.203125,-0.15625 -1,0 -1.4375,0.40625 -1.5625,0.546875 -0.28125,0.359375 -0.515625,1.078125 -0.96875,2.75 C 6.65625,-3.15625 6.34375,-1.859375 6.03125,-0.5625 5.484375,-1.390625 5.171875,-2.1875 4.6875,-3.46875 4.171875,-4.890625 3.84375,-5.921875 3.578125,-6.8125 c -0.0625,-0.203125 -0.0625,-0.21875 -0.15625,-0.21875 -0.015625,0 -0.21875,0 -0.515625,0.25 C 2.8125,-6.703125 2.796875,-6.609375 2.796875,-6.5 c -0.28125,2.65625 -1.21875,5.28125 -1.484375,5.75 -0.09375,0.15625 -0.203125,0.328125 -0.40625,0.328125 -0.09375,0 -0.484375,-0.046875 -0.75,-0.28125 C 0.109375,-0.75 0.09375,-0.75 0.078125,-0.75 c -0.15625,0 -0.375,0.5 -0.375,0.734375 C -0.296875,0.296875 0.3125,0.5 0.59375,0.5 1.234375,0.5 1.75,-0.90625 1.90625,-1.359375 2.546875,-3.171875 2.859375,-4.65625 3.046875,-5.71875 Z m 0,0"
           id="path125" />
      </symbol>
      <symbol
         overflow="visible"
         id="glyph1-2">
        <path
           style="stroke:none"
           d="m 1.90625,-2.5 c 0,-0.28125 -0.234375,-0.515625 -0.515625,-0.515625 -0.296875,0 -0.53125,0.234375 -0.53125,0.515625 0,0.296875 0.234375,0.53125 0.53125,0.53125 0.28125,0 0.515625,-0.234375 0.515625,-0.53125 z m 0,0"
           id="path128" />
      </symbol>
      <symbol
         overflow="visible"
         id="glyph1-3">
        <path
           style="stroke:none"
           d="m 1.578125,-7.125 c 0,-0.171875 0,-0.359375 -0.1875,-0.359375 -0.203125,0 -0.203125,0.1875 -0.203125,0.359375 v 9.265625 c 0,0.171875 0,0.359375 0.203125,0.359375 0.1875,0 0.1875,-0.1875 0.1875,-0.359375 z m 0,0"
           id="path131" />
      </symbol>
      <symbol
         overflow="visible"
         id="glyph1-4">
        <path
           style="stroke:none"
           d="m 9.046875,-2.296875 c 0.1875,0 0.359375,0 0.359375,-0.203125 0,-0.1875 -0.171875,-0.1875 -0.359375,-0.1875 h -7.40625 c 0.546875,-0.421875 0.828125,-0.828125 0.90625,-0.96875 0.4375,-0.6875 0.53125,-1.3125 0.53125,-1.3125 0,-0.125 -0.125,-0.125 -0.203125,-0.125 -0.171875,0 -0.1875,0.015625 -0.21875,0.203125 C 2.421875,-3.921875 1.828125,-3.09375 0.703125,-2.625 0.59375,-2.578125 0.5625,-2.5625 0.5625,-2.5 c 0,0.078125 0.046875,0.09375 0.140625,0.140625 1.046875,0.421875 1.703125,1.203125 1.953125,2.3125 0.03125,0.125 0.046875,0.15625 0.21875,0.15625 0.078125,0 0.203125,0 0.203125,-0.125 0,-0.015625 -0.09375,-0.640625 -0.515625,-1.3125 C 2.359375,-1.625 2.078125,-1.96875 1.640625,-2.296875 Z m 0,0"
           id="path134" />
      </symbol>
      <symbol
         overflow="visible"
         id="glyph1-5">
        <path
           style="stroke:none"
           d="m 6.5625,-2.296875 c 0.171875,0 0.359375,0 0.359375,-0.203125 0,-0.1875 -0.1875,-0.1875 -0.359375,-0.1875 H 1.171875 c -0.171875,0 -0.34375,0 -0.34375,0.1875 0,0.203125 0.171875,0.203125 0.34375,0.203125 z m 0,0"
           id="path137" />
      </symbol>
      <symbol
         overflow="visible"
         id="glyph2-0">
        <path
           style="stroke:none"
           d=""
           id="path140" />
      </symbol>
      <symbol
         overflow="visible"
         id="glyph2-1">
        <path
           style="stroke:none"
           d="m 5.359375,-5.9375 c -0.140625,0.140625 -0.46875,0.421875 -0.46875,0.59375 0,0.09375 0.09375,0.203125 0.1875,0.203125 0.09375,0 0.140625,-0.078125 0.203125,-0.140625 C 5.390625,-5.421875 5.625,-5.703125 6.0625,-5.921875 6.125,-5.96875 6.234375,-6.015625 6.234375,-6.125 6.234375,-6.234375 6.15625,-6.28125 6.09375,-6.328125 5.875,-6.484375 5.765625,-6.65625 5.6875,-6.890625 5.65625,-6.984375 5.625,-7.125 5.484375,-7.125 c -0.140625,0 -0.203125,0.140625 -0.203125,0.21875 0,0.046875 0.078125,0.359375 0.234375,0.578125 H 2.15625 c -0.15625,0 -0.34375,0 -0.34375,0.203125 0,0.1875 0.1875,0.1875 0.34375,0.1875 z m 0,0"
           id="path143" />
      </symbol>
      <symbol
         overflow="visible"
         id="glyph2-2">
        <path
           style="stroke:none"
           d="M 4.609375,-3.375 C 4.65625,-3.59375 4.75,-3.96875 4.75,-4.03125 c 0,-0.171875 -0.140625,-0.265625 -0.28125,-0.265625 -0.125,0 -0.296875,0.078125 -0.375,0.28125 -0.03125,0.0625 -0.5,1.96875 -0.5625,2.234375 C 3.453125,-1.484375 3.4375,-1.3125 3.4375,-1.125 c 0,0.109375 0,0.125 0.015625,0.171875 -0.234375,0.53125 -0.53125,0.84375 -0.921875,0.84375 -0.796875,0 -0.796875,-0.734375 -0.796875,-0.90625 0,-0.3125 0.046875,-0.703125 0.515625,-1.9375 0.109375,-0.296875 0.171875,-0.4375 0.171875,-0.640625 0,-0.4375 -0.328125,-0.8125 -0.8125,-0.8125 -0.953125,0 -1.3125,1.453125 -1.3125,1.53125 0,0.109375 0.09375,0.109375 0.109375,0.109375 0.109375,0 0.109375,-0.03125 0.15625,-0.1875 C 0.84375,-3.875 1.21875,-4.1875 1.578125,-4.1875 c 0.09375,0 0.25,0.015625 0.25,0.328125 0,0.25 -0.109375,0.53125 -0.1875,0.703125 -0.4375,1.171875 -0.546875,1.625 -0.546875,2.015625 0,0.90625 0.65625,1.25 1.40625,1.25 0.171875,0 0.640625,0 1.03125,-0.703125 0.265625,0.640625 0.953125,0.703125 1.25,0.703125 0.75,0 1.1875,-0.625 1.453125,-1.21875 0.328125,-0.78125 0.65625,-2.125 0.65625,-2.59375 0,-0.546875 -0.265625,-0.703125 -0.4375,-0.703125 -0.25,0 -0.5,0.265625 -0.5,0.484375 0,0.125 0.0625,0.1875 0.140625,0.265625 0.109375,0.109375 0.359375,0.359375 0.359375,0.84375 0,0.34375 -0.28125,1.3125 -0.546875,1.828125 -0.25,0.53125 -0.609375,0.875 -1.09375,0.875 -0.46875,0 -0.734375,-0.296875 -0.734375,-0.875 0,-0.265625 0.0625,-0.578125 0.109375,-0.71875 z m 0,0"
           id="path146" />
      </symbol>
      <symbol
         overflow="visible"
         id="glyph2-3">
        <path
           style="stroke:none"
           d="M 3.734375,-6.046875 C 3.8125,-6.40625 3.84375,-6.5 4.640625,-6.5 c 0.234375,0 0.3125,0 0.3125,-0.1875 0,-0.125 -0.109375,-0.125 -0.140625,-0.125 -0.296875,0 -1.03125,0.03125 -1.328125,0.03125 -0.296875,0 -1.015625,-0.03125 -1.328125,-0.03125 -0.0625,0 -0.1875,0 -0.1875,0.203125 C 1.96875,-6.5 2.046875,-6.5 2.25,-6.5 c 0.40625,0 0.6875,0 0.6875,0.1875 0,0.046875 0,0.078125 -0.03125,0.15625 l -1.34375,5.375 c -0.09375,0.375 -0.109375,0.46875 -0.90625,0.46875 -0.234375,0 -0.3125,0 -0.3125,0.203125 C 0.34375,0 0.453125,0 0.484375,0 0.78125,0 1.5,-0.03125 1.796875,-0.03125 2.09375,-0.03125 2.828125,0 3.125,0 c 0.078125,0 0.203125,0 0.203125,-0.1875 0,-0.125 -0.078125,-0.125 -0.296875,-0.125 -0.1875,0 -0.234375,0 -0.421875,-0.015625 -0.21875,-0.015625 -0.25,-0.0625 -0.25,-0.171875 0,-0.078125 0.015625,-0.15625 0.03125,-0.234375 z m 0,0"
           id="path149" />
      </symbol>
      <symbol
         overflow="visible"
         id="glyph2-4">
        <path
           style="stroke:none"
           d="m 1.578125,-0.78125 c -0.09375,0.390625 -0.109375,0.46875 -0.90625,0.46875 -0.15625,0 -0.265625,0 -0.265625,0.1875 C 0.40625,0 0.484375,0 0.671875,0 h 3.3125 c 2.0625,0 4.03125,-2.109375 4.03125,-4.28125 0,-1.40625 -0.84375,-2.53125 -2.34375,-2.53125 h -3.34375 c -0.1875,0 -0.296875,0 -0.296875,0.1875 0,0.125 0.078125,0.125 0.28125,0.125 0.125,0 0.3125,0.015625 0.421875,0.015625 0.171875,0.03125 0.21875,0.046875 0.21875,0.171875 0,0.03125 0,0.0625 -0.03125,0.1875 z M 3.734375,-6.125 C 3.828125,-6.46875 3.84375,-6.5 4.28125,-6.5 h 1.0625 c 0.96875,0 1.796875,0.53125 1.796875,1.84375 0,0.484375 -0.1875,2.125 -1.046875,3.21875 -0.28125,0.375 -1.0625,1.125 -2.296875,1.125 h -1.125 c -0.140625,0 -0.15625,0 -0.21875,0 -0.09375,-0.015625 -0.125,-0.03125 -0.125,-0.109375 0,-0.03125 0,-0.046875 0.046875,-0.21875 z m 0,0"
           id="path152" />
      </symbol>
      <symbol
         overflow="visible"
         id="glyph3-0">
        <path
           style="stroke:none"
           d=""
           id="path155" />
      </symbol>
      <symbol
         overflow="visible"
         id="glyph3-1">
        <path
           style="stroke:none"
           d="m 2.0625,-3.03125 c -1.046875,0.265625 -1.640625,1.15625 -1.640625,1.890625 0,0.75 0.5625,1.21875 1.25,1.21875 0.84375,0 1.5,-0.984375 1.5,-2 C 3.171875,-2.59375 2.8125,-3 2.59375,-3.234375 2.34375,-3.53125 1.8125,-4.09375 1.8125,-4.421875 c 0,-0.09375 0.109375,-0.28125 0.390625,-0.28125 0.234375,0 0.4375,0.109375 0.578125,0.1875 0.0625,0.03125 0.3125,0.1875 0.421875,0.1875 C 3.375,-4.328125 3.5,-4.484375 3.5,-4.625 3.5,-4.796875 3.40625,-4.8125 3.03125,-4.890625 2.953125,-4.90625 2.625,-4.96875 2.40625,-4.96875 c -0.53125,0 -0.8125,0.296875 -0.8125,0.71875 0,0.375 0.21875,0.796875 0.46875,1.21875 z m 0.109375,0.1875 C 2.375,-2.53125 2.625,-2.125 2.625,-1.625 c 0,0.578125 -0.34375,1.515625 -0.9375,1.515625 -0.375,0 -0.75,-0.25 -0.75,-0.828125 0,-0.46875 0.265625,-1.671875 1.234375,-1.90625 z m 0,0"
           id="path158" />
      </symbol>
      <symbol
         overflow="visible"
         id="glyph3-2">
        <path
           style="stroke:none"
           d="M 1.3125,-0.546875 C 1.265625,-0.3125 1.25,-0.25 0.703125,-0.25 0.578125,-0.25 0.5,-0.25 0.5,-0.09375 0.5,0 0.578125,0 0.703125,0 H 3.1875 c 1.546875,0 3.03125,-1.421875 3.03125,-2.9375 0,-1.015625 -0.703125,-1.828125 -1.828125,-1.828125 H 1.84375 c -0.140625,0 -0.21875,0 -0.21875,0.15625 0,0.09375 0.078125,0.09375 0.234375,0.09375 0.109375,0 0.140625,0 0.265625,0.015625 0.140625,0.015625 0.140625,0.03125 0.140625,0.109375 0,0 0,0.046875 -0.015625,0.140625 z m 1.5625,-3.71875 c 0.0625,-0.21875 0.0625,-0.25 0.359375,-0.25 H 4.125 c 0.78125,0 1.4375,0.390625 1.4375,1.34375 0,0.15625 -0.078125,1.359375 -0.765625,2.15625 C 4.515625,-0.703125 3.921875,-0.25 3.0625,-0.25 H 2.125 c -0.21875,0 -0.234375,-0.015625 -0.234375,-0.078125 0,0 0,-0.03125 0.03125,-0.140625 z m 0,0"
           id="path161" />
      </symbol>
      <symbol
         overflow="visible"
         id="glyph3-3">
        <path
           style="stroke:none"
           d="m 4.03125,-4.125 c -0.046875,0.0625 -0.296875,0.265625 -0.296875,0.375 0,0.109375 0.078125,0.1875 0.171875,0.1875 0.078125,0 0.125,-0.046875 0.15625,-0.109375 0.1875,-0.203125 0.390625,-0.34375 0.578125,-0.4375 0.09375,-0.03125 0.171875,-0.078125 0.171875,-0.1875 0,-0.09375 -0.0625,-0.125 -0.125,-0.15625 C 4.453125,-4.59375 4.390625,-4.78125 4.359375,-4.859375 4.34375,-4.90625 4.296875,-5.015625 4.1875,-5.015625 c -0.0625,0 -0.171875,0.046875 -0.171875,0.171875 0,0.109375 0.109375,0.296875 0.171875,0.390625 H 1.671875 c -0.109375,0 -0.265625,0 -0.265625,0.15625 0,0.171875 0.15625,0.171875 0.265625,0.171875 z m 0,0"
           id="path164" />
      </symbol>
      <symbol
         overflow="visible"
         id="glyph3-4">
        <path
           style="stroke:none"
           d="m 3.671875,-2.21875 c 0.046875,-0.1875 0.125,-0.53125 0.125,-0.5625 C 3.796875,-2.921875 3.6875,-3 3.5625,-3 3.4375,-3 3.3125,-2.921875 3.265625,-2.796875 3.25,-2.75 3.171875,-2.453125 3.125,-2.28125 3.03125,-1.875 3.03125,-1.875 2.921875,-1.484375 2.84375,-1.09375 2.828125,-1.03125 2.8125,-0.84375 2.84375,-0.703125 2.78125,-0.5625 2.625,-0.359375 2.53125,-0.25 2.390625,-0.125 2.15625,-0.125 1.875,-0.125 1.53125,-0.21875 1.53125,-0.765625 1.53125,-1.125 1.71875,-1.640625 1.859375,-2 1.984375,-2.296875 2,-2.359375 2,-2.484375 2,-2.8125 1.71875,-3.078125 1.34375,-3.078125 0.640625,-3.078125 0.328125,-2.125 0.328125,-2 c 0,0.078125 0.09375,0.078125 0.125,0.078125 0.09375,0 0.09375,-0.03125 0.125,-0.109375 C 0.75,-2.609375 1.046875,-2.875 1.328125,-2.875 1.4375,-2.875 1.5,-2.796875 1.5,-2.640625 c 0,0.171875 -0.0625,0.3125 -0.09375,0.40625 C 1,-1.21875 1,-1.078125 1,-0.859375 1,-0.03125 1.75,0.0625 2.125,0.0625 c 0.140625,0 0.46875,0 0.78125,-0.453125 C 3.078125,-0.078125 3.453125,0.0625 3.875,0.0625 4.5,0.0625 4.8125,-0.46875 4.953125,-0.75 5.25,-1.34375 5.4375,-2.203125 5.4375,-2.53125 c 0,-0.515625 -0.296875,-0.546875 -0.34375,-0.546875 -0.1875,0 -0.390625,0.1875 -0.390625,0.375 0,0.109375 0.078125,0.171875 0.125,0.203125 C 5,-2.359375 5.09375,-2.15625 5.09375,-1.9375 c 0,0.09375 -0.296875,1.8125 -1.1875,1.8125 -0.5625,0 -0.5625,-0.5 -0.5625,-0.625 0,-0.1875 0.03125,-0.296875 0.125,-0.6875 z m 0,0"
           id="path167" />
      </symbol>
      <symbol
         overflow="visible"
         id="glyph4-0">
        <path
           style="stroke:none"
           d=""
           id="path170" />
      </symbol>
      <symbol
         overflow="visible"
         id="glyph4-1">
        <path
           style="stroke:none"
           d="M 2.46875,-5.21875 C 1.15625,-4.296875 0.796875,-2.8125 0.796875,-1.75 c 0,0.984375 0.296875,2.515625 1.671875,3.484375 0.0625,0 0.140625,0 0.140625,-0.078125 0,-0.046875 -0.015625,-0.0625 -0.0625,-0.109375 C 1.609375,0.703125 1.28125,-0.46875 1.28125,-1.734375 1.28125,-3.625 2,-4.546875 2.5625,-5.0625 2.59375,-5.09375 2.609375,-5.109375 2.609375,-5.140625 2.609375,-5.21875 2.53125,-5.21875 2.46875,-5.21875 Z m 0,0"
           id="path173" />
      </symbol>
      <symbol
         overflow="visible"
         id="glyph4-2">
        <path
           style="stroke:none"
           d="m 0.625,-5.21875 c -0.046875,0 -0.125,0 -0.125,0.078125 0,0.03125 0.015625,0.046875 0.0625,0.109375 0.59375,0.546875 1.265625,1.484375 1.265625,3.28125 0,1.453125 -0.453125,2.5625 -1.203125,3.234375 -0.125,0.125 -0.125,0.125 -0.125,0.171875 0,0.03125 0.015625,0.078125 0.078125,0.078125 0.09375,0 0.75,-0.453125 1.21875,-1.328125 0.296875,-0.578125 0.5,-1.328125 0.5,-2.140625 C 2.296875,-2.71875 2,-4.25 0.625,-5.21875 Z m 0,0"
           id="path176" />
      </symbol>
    </g>
    <clipPath
       id="clip1">
      <path
         d="m 335,1 h 8.71094 V 8 H 335 Z m 0,0"
         id="path181" />
    </clipPath>
    <clipPath
       id="clip2">
      <path
         d="m 324,13 h 19.71094 v 8 H 324 Z m 0,0"
         id="path184" />
    </clipPath>
    <clipPath
       id="clip3">
      <path
         d="m 336,28 h 7.71094 v 4 H 336 Z m 0,0"
         id="path187" />
    </clipPath>
    <clipPath
       id="clip4">
      <path
         d="m 275,44 h 4 v 5.535156 h -4 z m 0,0"
         id="path190" />
    </clipPath>
    <clipPath
       id="clip5">
      <path
         d="m 279,46 h 6 v 3.535156 h -6 z m 0,0"
         id="path193" />
    </clipPath>
  </defs>
  <g
     id="surface1"
     transform="translate(-0.3125,0.01237488)">
    <g
       style="fill:#000000;fill-opacity:1"
       id="g220">
      <use
         xlink:href="#glyph0-1"
         x="0"
         y="7.4720001"
         id="use198"
         width="100%"
         height="100%" />
      <use
         xlink:href="#glyph0-2"
         x="2.7676101"
         y="7.4720001"
         id="use200"
         width="100%"
         height="100%" />
      <use
         xlink:href="#glyph0-3"
         x="6.669961"
         y="7.4720001"
         id="use202"
         width="100%"
         height="100%" />
      <use
         xlink:href="#glyph0-4"
         x="11.09734"
         y="7.4720001"
         id="use204"
         width="100%"
         height="100%" />
      <use
         xlink:href="#glyph0-5"
         x="15.52472"
         y="7.4720001"
         id="use206"
         width="100%"
         height="100%" />
      <use
         xlink:href="#glyph0-6"
         x="19.399176"
         y="7.4720001"
         id="use208"
         width="100%"
         height="100%" />
      <use
         xlink:href="#glyph0-7"
         x="24.380474"
         y="7.4720001"
         id="use210"
         width="100%"
         height="100%" />
      <use
         xlink:href="#glyph0-8"
         x="29.915695"
         y="7.4720001"
         id="use212"
         width="100%"
         height="100%" />
      <use
         xlink:href="#glyph0-9"
         x="34.896996"
         y="7.4720001"
         id="use214"
         width="100%"
         height="100%" />
      <use
         xlink:href="#glyph0-3"
         x="37.664604"
         y="7.4720001"
         id="use216"
         width="100%"
         height="100%" />
      <use
         xlink:href="#glyph0-10"
         x="42.091984"
         y="7.4720001"
         id="use218"
         width="100%"
         height="100%" />
    </g>
    <g
       style="fill:#000000;fill-opacity:1"
       id="g236">
      <use
         xlink:href="#glyph0-11"
         x="48.207027"
         y="7.4720001"
         id="use222"
         width="100%"
         height="100%" />
      <use
         xlink:href="#glyph0-12"
         x="52.081486"
         y="7.4720001"
         id="use224"
         width="100%"
         height="100%" />
      <use
         xlink:href="#glyph0-7"
         x="54.849094"
         y="7.4720001"
         id="use226"
         width="100%"
         height="100%" />
      <use
         xlink:href="#glyph0-13"
         x="60.384315"
         y="7.4720001"
         id="use228"
         width="100%"
         height="100%" />
      <use
         xlink:href="#glyph0-14"
         x="65.919533"
         y="7.4720001"
         id="use230"
         width="100%"
         height="100%" />
      <use
         xlink:href="#glyph0-5"
         x="71.454758"
         y="7.4720001"
         id="use232"
         width="100%"
         height="100%" />
      <use
         xlink:href="#glyph0-15"
         x="75.329208"
         y="7.4720001"
         id="use234"
         width="100%"
         height="100%" />
    </g>
    <g
       style="fill:#000000;fill-opacity:1"
       id="g242">
      <use
         xlink:href="#glyph0-6"
         x="82.551102"
         y="7.4720001"
         id="use238"
         width="100%"
         height="100%" />
      <use
         xlink:href="#glyph0-5"
         x="87.532402"
         y="7.4720001"
         id="use240"
         width="100%"
         height="100%" />
    </g>
    <g
       style="fill:#000000;fill-opacity:1"
       id="g246">
      <use
         xlink:href="#glyph0-11"
         x="94.754288"
         y="7.4720001"
         id="use244"
         width="100%"
         height="100%" />
    </g>
    <g
       style="fill:#000000;fill-opacity:1"
       id="g250">
      <use
         xlink:href="#glyph0-16"
         x="98.618782"
         y="7.4720001"
         id="use248"
         width="100%"
         height="100%" />
    </g>
    <g
       style="fill:#000000;fill-opacity:1"
       id="g254">
      <use
         xlink:href="#glyph0-17"
         x="103.61005"
         y="7.4720001"
         id="use252"
         width="100%"
         height="100%" />
    </g>
    <g
       style="fill:#000000;fill-opacity:1"
       id="g268">
      <use
         xlink:href="#glyph0-18"
         x="106.36769"
         y="7.4720001"
         id="use256"
         width="100%"
         height="100%" />
      <use
         xlink:href="#glyph0-19"
         x="111.34899"
         y="7.4720001"
         id="use258"
         width="100%"
         height="100%" />
      <use
         xlink:href="#glyph0-18"
         x="114.1166"
         y="7.4720001"
         id="use260"
         width="100%"
         height="100%" />
      <use
         xlink:href="#glyph0-17"
         x="119.0979"
         y="7.4720001"
         id="use262"
         width="100%"
         height="100%" />
      <use
         xlink:href="#glyph0-20"
         x="121.86551"
         y="7.4720001"
         id="use264"
         width="100%"
         height="100%" />
      <use
         xlink:href="#glyph0-15"
         x="126.84681"
         y="7.4720001"
         id="use266"
         width="100%"
         height="100%" />
    </g>
    <g
       style="fill:#000000;fill-opacity:1"
       id="g272">
      <use
         xlink:href="#glyph0-21"
         x="134.0687"
         y="7.4720001"
         id="use270"
         width="100%"
         height="100%" />
    </g>
    <g
       style="fill:#000000;fill-opacity:1"
       id="g290">
      <use
         xlink:href="#glyph0-3"
         x="139.74539"
         y="7.4720001"
         id="use274"
         width="100%"
         height="100%" />
      <use
         xlink:href="#glyph0-6"
         x="144.17278"
         y="7.4720001"
         id="use276"
         width="100%"
         height="100%" />
      <use
         xlink:href="#glyph0-5"
         x="149.15407"
         y="7.4720001"
         id="use278"
         width="100%"
         height="100%" />
      <use
         xlink:href="#glyph0-14"
         x="153.02852"
         y="7.4720001"
         id="use280"
         width="100%"
         height="100%" />
      <use
         xlink:href="#glyph0-2"
         x="158.56375"
         y="7.4720001"
         id="use282"
         width="100%"
         height="100%" />
      <use
         xlink:href="#glyph0-3"
         x="162.46609"
         y="7.4720001"
         id="use284"
         width="100%"
         height="100%" />
      <use
         xlink:href="#glyph0-22"
         x="166.89348"
         y="7.4720001"
         id="use286"
         width="100%"
         height="100%" />
      <use
         xlink:href="#glyph0-23"
         x="170.82272"
         y="7.4720001"
         id="use288"
         width="100%"
         height="100%" />
    </g>
    <g
       style="fill:#000000;fill-opacity:1"
       id="g314">
      <use
         xlink:href="#glyph0-1"
         x="176.94772"
         y="7.4720001"
         id="use292"
         width="100%"
         height="100%" />
      <use
         xlink:href="#glyph0-2"
         x="179.71535"
         y="7.4720001"
         id="use294"
         width="100%"
         height="100%" />
      <use
         xlink:href="#glyph0-3"
         x="183.61769"
         y="7.4720001"
         id="use296"
         width="100%"
         height="100%" />
      <use
         xlink:href="#glyph0-4"
         x="188.04507"
         y="7.4720001"
         id="use298"
         width="100%"
         height="100%" />
      <use
         xlink:href="#glyph0-5"
         x="192.47246"
         y="7.4720001"
         id="use300"
         width="100%"
         height="100%" />
      <use
         xlink:href="#glyph0-6"
         x="196.34691"
         y="7.4720001"
         id="use302"
         width="100%"
         height="100%" />
      <use
         xlink:href="#glyph0-7"
         x="201.3282"
         y="7.4720001"
         id="use304"
         width="100%"
         height="100%" />
      <use
         xlink:href="#glyph0-8"
         x="206.86342"
         y="7.4720001"
         id="use306"
         width="100%"
         height="100%" />
      <use
         xlink:href="#glyph0-9"
         x="211.84473"
         y="7.4720001"
         id="use308"
         width="100%"
         height="100%" />
      <use
         xlink:href="#glyph0-3"
         x="214.61234"
         y="7.4720001"
         id="use310"
         width="100%"
         height="100%" />
      <use
         xlink:href="#glyph0-19"
         x="219.03972"
         y="7.4720001"
         id="use312"
         width="100%"
         height="100%" />
    </g>
    <g
       style="fill:#000000;fill-opacity:1"
       id="g324">
      <use
         xlink:href="#glyph0-2"
         x="225.16472"
         y="7.4720001"
         id="use316"
         width="100%"
         height="100%" />
      <use
         xlink:href="#glyph0-12"
         x="229.06708"
         y="7.4720001"
         id="use318"
         width="100%"
         height="100%" />
      <use
         xlink:href="#glyph0-8"
         x="231.83469"
         y="7.4720001"
         id="use320"
         width="100%"
         height="100%" />
      <use
         xlink:href="#glyph0-24"
         x="236.81598"
         y="7.4720001"
         id="use322"
         width="100%"
         height="100%" />
    </g>
    <g
       style="fill:#000000;fill-opacity:1"
       id="g334">
      <use
         xlink:href="#glyph0-5"
         x="242.07225"
         y="7.4720001"
         id="use326"
         width="100%"
         height="100%" />
      <use
         xlink:href="#glyph0-25"
         x="245.9467"
         y="7.4720001"
         id="use328"
         width="100%"
         height="100%" />
      <use
         xlink:href="#glyph0-26"
         x="253.69562"
         y="7.4720001"
         id="use330"
         width="100%"
         height="100%" />
      <use
         xlink:href="#glyph0-27"
         x="258.67691"
         y="7.4720001"
         id="use332"
         width="100%"
         height="100%" />
    </g>
    <g
       style="fill:#000000;fill-opacity:1"
       id="g348">
      <use
         xlink:href="#glyph0-12"
         x="265.06891"
         y="7.4720001"
         id="use336"
         width="100%"
         height="100%" />
      <use
         xlink:href="#glyph0-7"
         x="267.83652"
         y="7.4720001"
         id="use338"
         width="100%"
         height="100%" />
      <use
         xlink:href="#glyph0-13"
         x="273.37177"
         y="7.4720001"
         id="use340"
         width="100%"
         height="100%" />
      <use
         xlink:href="#glyph0-14"
         x="278.90698"
         y="7.4720001"
         id="use342"
         width="100%"
         height="100%" />
      <use
         xlink:href="#glyph0-5"
         x="284.4422"
         y="7.4720001"
         id="use344"
         width="100%"
         height="100%" />
      <use
         xlink:href="#glyph0-10"
         x="288.31665"
         y="7.4720001"
         id="use346"
         width="100%"
         height="100%" />
    </g>
    <g
       style="fill:#000000;fill-opacity:1"
       id="g366">
      <use
         xlink:href="#glyph0-11"
         x="294.42172"
         y="7.4720001"
         id="use350"
         width="100%"
         height="100%" />
      <use
         xlink:href="#glyph0-26"
         x="298.29617"
         y="7.4720001"
         id="use352"
         width="100%"
         height="100%" />
      <use
         xlink:href="#glyph0-14"
         x="303.2775"
         y="7.4720001"
         id="use354"
         width="100%"
         height="100%" />
      <use
         xlink:href="#glyph0-5"
         x="308.81271"
         y="7.4720001"
         id="use356"
         width="100%"
         height="100%" />
      <use
         xlink:href="#glyph0-13"
         x="312.68716"
         y="7.4720001"
         id="use358"
         width="100%"
         height="100%" />
      <use
         xlink:href="#glyph0-14"
         x="318.22238"
         y="7.4720001"
         id="use360"
         width="100%"
         height="100%" />
      <use
         xlink:href="#glyph0-5"
         x="323.7576"
         y="7.4720001"
         id="use362"
         width="100%"
         height="100%" />
      <use
         xlink:href="#glyph0-15"
         x="327.63205"
         y="7.4720001"
         id="use364"
         width="100%"
         height="100%" />
    </g>
    <g
       clip-path="url(#clip1)"
       clip-rule="nonzero"
       id="g374">
      <g
         style="fill:#000000;fill-opacity:1"
         id="g372">
        <use
           xlink:href="#glyph0-6"
           x="334.85394"
           y="7.4720001"
           id="use368"
           width="100%"
           height="100%" />
        <use
           xlink:href="#glyph0-5"
           x="339.83524"
           y="7.4720001"
           id="use370"
           width="100%"
           height="100%" />
      </g>
    </g>
    <g
       style="fill:#000000;fill-opacity:1"
       id="g394">
      <use
         xlink:href="#glyph0-11"
         x="0"
         y="20.594999"
         id="use376"
         width="100%"
         height="100%" />
      <use
         xlink:href="#glyph0-28"
         x="3.874455"
         y="20.594999"
         id="use378"
         width="100%"
         height="100%" />
      <use
         xlink:href="#glyph0-17"
         x="8.8557549"
         y="20.594999"
         id="use380"
         width="100%"
         height="100%" />
      <use
         xlink:href="#glyph0-18"
         x="11.623365"
         y="20.594999"
         id="use382"
         width="100%"
         height="100%" />
      <use
         xlink:href="#glyph0-19"
         x="16.604666"
         y="20.594999"
         id="use384"
         width="100%"
         height="100%" />
      <use
         xlink:href="#glyph0-18"
         x="19.372276"
         y="20.594999"
         id="use386"
         width="100%"
         height="100%" />
      <use
         xlink:href="#glyph0-17"
         x="24.353577"
         y="20.594999"
         id="use388"
         width="100%"
         height="100%" />
      <use
         xlink:href="#glyph0-20"
         x="27.121185"
         y="20.594999"
         id="use390"
         width="100%"
         height="100%" />
      <use
         xlink:href="#glyph0-15"
         x="32.102486"
         y="20.594999"
         id="use392"
         width="100%"
         height="100%" />
    </g>
    <g
       style="fill:#000000;fill-opacity:1"
       id="g402">
      <use
         xlink:href="#glyph0-29"
         x="39.164974"
         y="20.594999"
         id="use396"
         width="100%"
         height="100%" />
      <use
         xlink:href="#glyph0-6"
         x="45.391598"
         y="20.594999"
         id="use398"
         width="100%"
         height="100%" />
      <use
         xlink:href="#glyph0-30"
         x="50.372898"
         y="20.594999"
         id="use400"
         width="100%"
         height="100%" />
    </g>
    <g
       style="fill:#000000;fill-opacity:1"
       id="g412">
      <use
         xlink:href="#glyph0-3"
         x="56.187073"
         y="20.594999"
         id="use404"
         width="100%"
         height="100%" />
      <use
         xlink:href="#glyph0-9"
         x="60.614452"
         y="20.594999"
         id="use406"
         width="100%"
         height="100%" />
      <use
         xlink:href="#glyph0-22"
         x="63.382061"
         y="20.594999"
         id="use408"
         width="100%"
         height="100%" />
      <use
         xlink:href="#glyph0-23"
         x="67.31131"
         y="20.594999"
         id="use410"
         width="100%"
         height="100%" />
    </g>
    <g
       style="fill:#000000;fill-opacity:1"
       id="g436">
      <use
         xlink:href="#glyph0-1"
         x="73.306801"
         y="20.594999"
         id="use414"
         width="100%"
         height="100%" />
      <use
         xlink:href="#glyph0-2"
         x="76.074417"
         y="20.594999"
         id="use416"
         width="100%"
         height="100%" />
      <use
         xlink:href="#glyph0-3"
         x="79.976761"
         y="20.594999"
         id="use418"
         width="100%"
         height="100%" />
      <use
         xlink:href="#glyph0-4"
         x="84.404144"
         y="20.594999"
         id="use420"
         width="100%"
         height="100%" />
      <use
         xlink:href="#glyph0-5"
         x="88.83152"
         y="20.594999"
         id="use422"
         width="100%"
         height="100%" />
      <use
         xlink:href="#glyph0-6"
         x="92.705978"
         y="20.594999"
         id="use424"
         width="100%"
         height="100%" />
      <use
         xlink:href="#glyph0-7"
         x="97.687279"
         y="20.594999"
         id="use426"
         width="100%"
         height="100%" />
      <use
         xlink:href="#glyph0-8"
         x="103.2225"
         y="20.594999"
         id="use428"
         width="100%"
         height="100%" />
      <use
         xlink:href="#glyph0-9"
         x="108.2038"
         y="20.594999"
         id="use430"
         width="100%"
         height="100%" />
      <use
         xlink:href="#glyph0-3"
         x="110.97141"
         y="20.594999"
         id="use432"
         width="100%"
         height="100%" />
      <use
         xlink:href="#glyph0-19"
         x="115.39879"
         y="20.594999"
         id="use434"
         width="100%"
         height="100%" />
    </g>
    <g
       style="fill:#000000;fill-opacity:1"
       id="g440">
      <use
         xlink:href="#glyph0-30"
         x="121.38432"
         y="20.594999"
         id="use438"
         width="100%"
         height="100%" />
    </g>
    <g
       style="fill:#000000;fill-opacity:1"
       id="g448">
      <use
         xlink:href="#glyph0-3"
         x="127.19849"
         y="20.594999"
         id="use442"
         width="100%"
         height="100%" />
      <use
         xlink:href="#glyph0-9"
         x="131.62587"
         y="20.594999"
         id="use444"
         width="100%"
         height="100%" />
      <use
         xlink:href="#glyph0-26"
         x="134.39348"
         y="20.594999"
         id="use446"
         width="100%"
         height="100%" />
    </g>
    <g
       style="fill:#000000;fill-opacity:1"
       id="g458">
      <use
         xlink:href="#glyph0-31"
         x="139.09583"
         y="20.594999"
         id="use450"
         width="100%"
         height="100%" />
      <use
         xlink:href="#glyph0-25"
         x="146.29082"
         y="20.594999"
         id="use452"
         width="100%"
         height="100%" />
      <use
         xlink:href="#glyph0-26"
         x="154.03973"
         y="20.594999"
         id="use454"
         width="100%"
         height="100%" />
      <use
         xlink:href="#glyph0-27"
         x="159.02103"
         y="20.594999"
         id="use456"
         width="100%"
         height="100%" />
    </g>
    <g
       style="fill:#000000;fill-opacity:1"
       id="g472">
      <use
         xlink:href="#glyph0-12"
         x="165.25363"
         y="20.594999"
         id="use460"
         width="100%"
         height="100%" />
      <use
         xlink:href="#glyph0-7"
         x="168.02124"
         y="20.594999"
         id="use462"
         width="100%"
         height="100%" />
      <use
         xlink:href="#glyph0-13"
         x="173.55646"
         y="20.594999"
         id="use464"
         width="100%"
         height="100%" />
      <use
         xlink:href="#glyph0-14"
         x="179.09169"
         y="20.594999"
         id="use466"
         width="100%"
         height="100%" />
      <use
         xlink:href="#glyph0-5"
         x="184.62691"
         y="20.594999"
         id="use468"
         width="100%"
         height="100%" />
      <use
         xlink:href="#glyph0-10"
         x="188.50136"
         y="20.594999"
         id="use470"
         width="100%"
         height="100%" />
    </g>
    <g
       style="fill:#000000;fill-opacity:1"
       id="g482">
      <use
         xlink:href="#glyph0-11"
         x="194.457"
         y="20.594999"
         id="use474"
         width="100%"
         height="100%" />
      <use
         xlink:href="#glyph0-32"
         x="198.33145"
         y="20.594999"
         id="use476"
         width="100%"
         height="100%" />
      <use
         xlink:href="#glyph0-9"
         x="206.63329"
         y="20.594999"
         id="use478"
         width="100%"
         height="100%" />
      <use
         xlink:href="#glyph0-15"
         x="209.40089"
         y="20.594999"
         id="use480"
         width="100%"
         height="100%" />
    </g>
    <g
       style="fill:#000000;fill-opacity:1"
       id="g486">
      <use
         xlink:href="#glyph1-1"
         x="216.461"
         y="20.594999"
         id="use484"
         width="100%"
         height="100%" />
    </g>
    <g
       style="fill:#000000;fill-opacity:1"
       id="g490">
      <use
         xlink:href="#glyph0-11"
         x="226.104"
         y="20.594999"
         id="use488"
         width="100%"
         height="100%" />
    </g>
    <g
       style="fill:#000000;fill-opacity:1"
       id="g494">
      <use
         xlink:href="#glyph2-1"
         x="231.252"
         y="20.594999"
         id="use492"
         width="100%"
         height="100%" />
    </g>
    <g
       style="fill:#000000;fill-opacity:1"
       id="g498">
      <use
         xlink:href="#glyph2-2"
         x="229.97679"
         y="20.594999"
         id="use496"
         width="100%"
         height="100%" />
    </g>
    <g
       style="fill:#000000;fill-opacity:1"
       id="g502">
      <use
         xlink:href="#glyph1-2"
         x="239.327"
         y="20.594999"
         id="use500"
         width="100%"
         height="100%" />
    </g>
    <g
       style="fill:#000000;fill-opacity:1"
       id="g506">
      <use
         xlink:href="#glyph2-1"
         x="244.474"
         y="18.077"
         id="use504"
         width="100%"
         height="100%" />
    </g>
    <g
       style="fill:#000000;fill-opacity:1"
       id="g510">
      <use
         xlink:href="#glyph2-3"
         x="244.04401"
         y="20.594999"
         id="use508"
         width="100%"
         height="100%" />
    </g>
    <g
       style="fill:#000000;fill-opacity:1"
       id="g516">
      <use
         xlink:href="#glyph0-15"
         x="249.205"
         y="20.594999"
         id="use512"
         width="100%"
         height="100%" />
      <use
         xlink:href="#glyph0-23"
         x="253.07945"
         y="20.594999"
         id="use514"
         width="100%"
         height="100%" />
    </g>
    <g
       style="fill:#000000;fill-opacity:1"
       id="g540">
      <use
         xlink:href="#glyph0-1"
         x="259.07495"
         y="20.594999"
         id="use518"
         width="100%"
         height="100%" />
      <use
         xlink:href="#glyph0-2"
         x="261.84256"
         y="20.594999"
         id="use520"
         width="100%"
         height="100%" />
      <use
         xlink:href="#glyph0-3"
         x="265.7449"
         y="20.594999"
         id="use522"
         width="100%"
         height="100%" />
      <use
         xlink:href="#glyph0-4"
         x="270.1723"
         y="20.594999"
         id="use524"
         width="100%"
         height="100%" />
      <use
         xlink:href="#glyph0-5"
         x="274.59967"
         y="20.594999"
         id="use526"
         width="100%"
         height="100%" />
      <use
         xlink:href="#glyph0-6"
         x="278.47412"
         y="20.594999"
         id="use528"
         width="100%"
         height="100%" />
      <use
         xlink:href="#glyph0-7"
         x="283.45541"
         y="20.594999"
         id="use530"
         width="100%"
         height="100%" />
      <use
         xlink:href="#glyph0-8"
         x="288.99063"
         y="20.594999"
         id="use532"
         width="100%"
         height="100%" />
      <use
         xlink:href="#glyph0-9"
         x="293.97195"
         y="20.594999"
         id="use534"
         width="100%"
         height="100%" />
      <use
         xlink:href="#glyph0-3"
         x="296.73956"
         y="20.594999"
         id="use536"
         width="100%"
         height="100%" />
      <use
         xlink:href="#glyph0-19"
         x="301.16693"
         y="20.594999"
         id="use538"
         width="100%"
         height="100%" />
    </g>
    <g
       style="fill:#000000;fill-opacity:1"
       id="g550">
      <use
         xlink:href="#glyph0-2"
         x="307.15247"
         y="20.594999"
         id="use542"
         width="100%"
         height="100%" />
      <use
         xlink:href="#glyph0-12"
         x="311.05481"
         y="20.594999"
         id="use544"
         width="100%"
         height="100%" />
      <use
         xlink:href="#glyph0-8"
         x="313.82242"
         y="20.594999"
         id="use546"
         width="100%"
         height="100%" />
      <use
         xlink:href="#glyph0-24"
         x="318.80371"
         y="20.594999"
         id="use548"
         width="100%"
         height="100%" />
    </g>
    <g
       clip-path="url(#clip2)"
       clip-rule="nonzero"
       id="g562">
      <g
         style="fill:#000000;fill-opacity:1"
         id="g560">
        <use
           xlink:href="#glyph0-5"
           x="324.06"
           y="20.594999"
           id="use552"
           width="100%"
           height="100%" />
        <use
           xlink:href="#glyph0-25"
           x="327.93445"
           y="20.594999"
           id="use554"
           width="100%"
           height="100%" />
        <use
           xlink:href="#glyph0-26"
           x="335.68335"
           y="20.594999"
           id="use556"
           width="100%"
           height="100%" />
        <use
           xlink:href="#glyph0-27"
           x="340.66464"
           y="20.594999"
           id="use558"
           width="100%"
           height="100%" />
      </g>
    </g>
    <g
       style="fill:#000000;fill-opacity:1"
       id="g570">
      <use
         xlink:href="#glyph0-32"
         x="0"
         y="32.549999"
         id="use564"
         width="100%"
         height="100%" />
      <use
         xlink:href="#glyph0-9"
         x="8.3018351"
         y="32.549999"
         id="use566"
         width="100%"
         height="100%" />
      <use
         xlink:href="#glyph0-10"
         x="11.069445"
         y="32.549999"
         id="use568"
         width="100%"
         height="100%" />
    </g>
    <g
       style="fill:#000000;fill-opacity:1"
       id="g576">
      <use
         xlink:href="#glyph0-11"
         x="18.011385"
         y="32.549999"
         id="use572"
         width="100%"
         height="100%" />
      <use
         xlink:href="#glyph0-13"
         x="21.885839"
         y="32.549999"
         id="use574"
         width="100%"
         height="100%" />
    </g>
    <g
       style="fill:#000000;fill-opacity:1"
       id="g582">
      <use
         xlink:href="#glyph0-2"
         x="27.411098"
         y="32.549999"
         id="use578"
         width="100%"
         height="100%" />
      <use
         xlink:href="#glyph0-3"
         x="31.313448"
         y="32.549999"
         id="use580"
         width="100%"
         height="100%" />
    </g>
    <g
       style="fill:#000000;fill-opacity:1"
       id="g586">
      <use
         xlink:href="#glyph0-33"
         x="35.75079"
         y="32.549999"
         id="use584"
         width="100%"
         height="100%" />
    </g>
    <g
       style="fill:#000000;fill-opacity:1"
       id="g590">
      <use
         xlink:href="#glyph0-15"
         x="41.276047"
         y="32.549999"
         id="use588"
         width="100%"
         height="100%" />
    </g>
    <g
       style="fill:#000000;fill-opacity:1"
       id="g594">
      <use
         xlink:href="#glyph0-34"
         x="49.324833"
         y="32.549999"
         id="use592"
         width="100%"
         height="100%" />
    </g>
    <g
       style="fill:#000000;fill-opacity:1"
       id="g616">
      <use
         xlink:href="#glyph0-26"
         x="55.969887"
         y="32.549999"
         id="use596"
         width="100%"
         height="100%" />
      <use
         xlink:href="#glyph0-2"
         x="60.951187"
         y="32.549999"
         id="use598"
         width="100%"
         height="100%" />
      <use
         xlink:href="#glyph0-24"
         x="64.853539"
         y="32.549999"
         id="use600"
         width="100%"
         height="100%" />
      <use
         xlink:href="#glyph0-3"
         x="70.388756"
         y="32.549999"
         id="use602"
         width="100%"
         height="100%" />
      <use
         xlink:href="#glyph0-2"
         x="74.816139"
         y="32.549999"
         id="use604"
         width="100%"
         height="100%" />
      <use
         xlink:href="#glyph0-22"
         x="78.718491"
         y="32.549999"
         id="use606"
         width="100%"
         height="100%" />
      <use
         xlink:href="#glyph0-6"
         x="82.647736"
         y="32.549999"
         id="use608"
         width="100%"
         height="100%" />
      <use
         xlink:href="#glyph0-8"
         x="87.629036"
         y="32.549999"
         id="use610"
         width="100%"
         height="100%" />
      <use
         xlink:href="#glyph0-3"
         x="92.610336"
         y="32.549999"
         id="use612"
         width="100%"
         height="100%" />
      <use
         xlink:href="#glyph0-23"
         x="97.03772"
         y="32.549999"
         id="use614"
         width="100%"
         height="100%" />
    </g>
    <g
       style="fill:#000000;fill-opacity:1"
       id="g640">
      <use
         xlink:href="#glyph0-1"
         x="104.39809"
         y="32.549999"
         id="use618"
         width="100%"
         height="100%" />
      <use
         xlink:href="#glyph0-2"
         x="107.1657"
         y="32.549999"
         id="use620"
         width="100%"
         height="100%" />
      <use
         xlink:href="#glyph0-3"
         x="111.06805"
         y="32.549999"
         id="use622"
         width="100%"
         height="100%" />
      <use
         xlink:href="#glyph0-4"
         x="115.49542"
         y="32.549999"
         id="use624"
         width="100%"
         height="100%" />
      <use
         xlink:href="#glyph0-5"
         x="119.92281"
         y="32.549999"
         id="use626"
         width="100%"
         height="100%" />
      <use
         xlink:href="#glyph0-6"
         x="123.79726"
         y="32.549999"
         id="use628"
         width="100%"
         height="100%" />
      <use
         xlink:href="#glyph0-7"
         x="128.77856"
         y="32.549999"
         id="use630"
         width="100%"
         height="100%" />
      <use
         xlink:href="#glyph0-8"
         x="134.31378"
         y="32.549999"
         id="use632"
         width="100%"
         height="100%" />
      <use
         xlink:href="#glyph0-9"
         x="139.29507"
         y="32.549999"
         id="use634"
         width="100%"
         height="100%" />
      <use
         xlink:href="#glyph0-3"
         x="142.0627"
         y="32.549999"
         id="use636"
         width="100%"
         height="100%" />
      <use
         xlink:href="#glyph0-19"
         x="146.49007"
         y="32.549999"
         id="use638"
         width="100%"
         height="100%" />
    </g>
    <g
       style="fill:#000000;fill-opacity:1"
       id="g644">
      <use
         xlink:href="#glyph0-30"
         x="153.64122"
         y="32.549999"
         id="use642"
         width="100%"
         height="100%" />
    </g>
    <g
       style="fill:#000000;fill-opacity:1"
       id="g652">
      <use
         xlink:href="#glyph0-3"
         x="159.44543"
         y="32.549999"
         id="use646"
         width="100%"
         height="100%" />
      <use
         xlink:href="#glyph0-9"
         x="163.87282"
         y="32.549999"
         id="use648"
         width="100%"
         height="100%" />
      <use
         xlink:href="#glyph0-26"
         x="166.64043"
         y="32.549999"
         id="use650"
         width="100%"
         height="100%" />
    </g>
    <g
       style="fill:#000000;fill-opacity:1"
       id="g662">
      <use
         xlink:href="#glyph0-31"
         x="171.35274"
         y="32.549999"
         id="use654"
         width="100%"
         height="100%" />
      <use
         xlink:href="#glyph0-25"
         x="178.54773"
         y="32.549999"
         id="use656"
         width="100%"
         height="100%" />
      <use
         xlink:href="#glyph0-26"
         x="186.29663"
         y="32.549999"
         id="use658"
         width="100%"
         height="100%" />
      <use
         xlink:href="#glyph0-27"
         x="191.27794"
         y="32.549999"
         id="use660"
         width="100%"
         height="100%" />
    </g>
    <g
       style="fill:#000000;fill-opacity:1"
       id="g674">
      <use
         xlink:href="#glyph0-13"
         x="198.48688"
         y="32.549999"
         id="use664"
         width="100%"
         height="100%" />
      <use
         xlink:href="#glyph0-2"
         x="204.02209"
         y="32.549999"
         id="use666"
         width="100%"
         height="100%" />
      <use
         xlink:href="#glyph0-3"
         x="207.92444"
         y="32.549999"
         id="use668"
         width="100%"
         height="100%" />
      <use
         xlink:href="#glyph0-33"
         x="212.35182"
         y="32.549999"
         id="use670"
         width="100%"
         height="100%" />
      <use
         xlink:href="#glyph0-10"
         x="217.88704"
         y="32.549999"
         id="use672"
         width="100%"
         height="100%" />
    </g>
    <g
       style="fill:#000000;fill-opacity:1"
       id="g684">
      <use
         xlink:href="#glyph0-11"
         x="224.82898"
         y="32.549999"
         id="use676"
         width="100%"
         height="100%" />
      <use
         xlink:href="#glyph0-33"
         x="228.70345"
         y="32.549999"
         id="use678"
         width="100%"
         height="100%" />
      <use
         xlink:href="#glyph0-12"
         x="234.23866"
         y="32.549999"
         id="use680"
         width="100%"
         height="100%" />
      <use
         xlink:href="#glyph0-35"
         x="237.00627"
         y="32.549999"
         id="use682"
         width="100%"
         height="100%" />
    </g>
    <g
       style="fill:#000000;fill-opacity:1"
       id="g688">
      <use
         xlink:href="#glyph0-15"
         x="243.58458"
         y="32.549999"
         id="use686"
         width="100%"
         height="100%" />
    </g>
    <g
       style="fill:#000000;fill-opacity:1"
       id="g694">
      <use
         xlink:href="#glyph0-36"
         x="251.63336"
         y="32.549999"
         id="use690"
         width="100%"
         height="100%" />
      <use
         xlink:href="#glyph0-30"
         x="259.10532"
         y="32.549999"
         id="use692"
         width="100%"
         height="100%" />
    </g>
    <g
       style="fill:#000000;fill-opacity:1"
       id="g698">
      <use
         xlink:href="#glyph0-31"
         x="264.36157"
         y="32.549999"
         id="use696"
         width="100%"
         height="100%" />
    </g>
    <g
       style="fill:#000000;fill-opacity:1"
       id="g706">
      <use
         xlink:href="#glyph0-3"
         x="271.27762"
         y="32.549999"
         id="use700"
         width="100%"
         height="100%" />
      <use
         xlink:href="#glyph0-12"
         x="275.70499"
         y="32.549999"
         id="use702"
         width="100%"
         height="100%" />
      <use
         xlink:href="#glyph0-4"
         x="278.4726"
         y="32.549999"
         id="use704"
         width="100%"
         height="100%" />
    </g>
    <g
       style="fill:#000000;fill-opacity:1"
       id="g710">
      <use
         xlink:href="#glyph0-24"
         x="282.63098"
         y="32.549999"
         id="use708"
         width="100%"
         height="100%" />
    </g>
    <g
       style="fill:#000000;fill-opacity:1"
       id="g718">
      <use
         xlink:href="#glyph0-14"
         x="287.88727"
         y="32.549999"
         id="use712"
         width="100%"
         height="100%" />
      <use
         xlink:href="#glyph0-7"
         x="293.42249"
         y="32.549999"
         id="use714"
         width="100%"
         height="100%" />
      <use
         xlink:href="#glyph0-8"
         x="298.9577"
         y="32.549999"
         id="use716"
         width="100%"
         height="100%" />
    </g>
    <g
       style="fill:#000000;fill-opacity:1"
       id="g722">
      <use
         xlink:href="#glyph2-4"
         x="308.10599"
         y="32.549999"
         id="use720"
         width="100%"
         height="100%" />
    </g>
    <g
       style="fill:#000000;fill-opacity:1"
       id="g726">
      <use
         xlink:href="#glyph0-11"
         x="316.63101"
         y="32.549999"
         id="use724"
         width="100%"
         height="100%" />
    </g>
    <g
       style="fill:#000000;fill-opacity:1"
       id="g730">
      <use
         xlink:href="#glyph2-1"
         x="321.77899"
         y="32.549999"
         id="use728"
         width="100%"
         height="100%" />
    </g>
    <g
       style="fill:#000000;fill-opacity:1"
       id="g734">
      <use
         xlink:href="#glyph2-2"
         x="320.50378"
         y="32.549999"
         id="use732"
         width="100%"
         height="100%" />
    </g>
    <g
       style="fill:#000000;fill-opacity:1"
       id="g738">
      <use
         xlink:href="#glyph0-15"
         x="327.90601"
         y="32.549999"
         id="use736"
         width="100%"
         height="100%" />
    </g>
    <g
       clip-path="url(#clip3)"
       clip-rule="nonzero"
       id="g744">
      <g
         style="fill:#000000;fill-opacity:1"
         id="g742">
        <use
           xlink:href="#glyph0-25"
           x="335.96475"
           y="32.549999"
           id="use740"
           width="100%"
           height="100%" />
      </g>
    </g>
    <g
       style="fill:#000000;fill-opacity:1"
       id="g748">
      <use
         xlink:href="#glyph1-3"
         x="5.6842999e-14"
         y="46.098999"
         id="use746"
         width="100%"
         height="100%" />
    </g>
    <g
       style="fill:#000000;fill-opacity:1"
       id="g758">
      <use
         xlink:href="#glyph0-37"
         x="2.767"
         y="46.098999"
         id="use750"
         width="100%"
         height="100%" />
      <use
         xlink:href="#glyph0-12"
         x="8.8551455"
         y="46.098999"
         id="use752"
         width="100%"
         height="100%" />
      <use
         xlink:href="#glyph0-3"
         x="11.622755"
         y="46.098999"
         id="use754"
         width="100%"
         height="100%" />
      <use
         xlink:href="#glyph0-9"
         x="16.050135"
         y="46.098999"
         id="use756"
         width="100%"
         height="100%" />
    </g>
    <g
       style="fill:#000000;fill-opacity:1"
       id="g762">
      <use
         xlink:href="#glyph0-38"
         x="22.13529"
         y="46.098999"
         id="use760"
         width="100%"
         height="100%" />
    </g>
    <g
       style="fill:#000000;fill-opacity:1"
       id="g776">
      <use
         xlink:href="#glyph0-36"
         x="28.783335"
         y="46.098999"
         id="use764"
         width="100%"
         height="100%" />
      <use
         xlink:href="#glyph0-14"
         x="36.255283"
         y="46.098999"
         id="use766"
         width="100%"
         height="100%" />
      <use
         xlink:href="#glyph0-22"
         x="41.790504"
         y="46.098999"
         id="use768"
         width="100%"
         height="100%" />
      <use
         xlink:href="#glyph0-8"
         x="45.719753"
         y="46.098999"
         id="use770"
         width="100%"
         height="100%" />
      <use
         xlink:href="#glyph0-6"
         x="50.701054"
         y="46.098999"
         id="use772"
         width="100%"
         height="100%" />
      <use
         xlink:href="#glyph0-30"
         x="55.682354"
         y="46.098999"
         id="use774"
         width="100%"
         height="100%" />
    </g>
    <g
       style="fill:#000000;fill-opacity:1"
       id="g780">
      <use
         xlink:href="#glyph0-3"
         x="61.496529"
         y="46.098999"
         id="use778"
         width="100%"
         height="100%" />
    </g>
    <g
       style="fill:#000000;fill-opacity:1"
       id="g784">
      <use
         xlink:href="#glyph1-3"
         x="65.919998"
         y="46.098999"
         id="use782"
         width="100%"
         height="100%" />
    </g>
    <g
       style="fill:#000000;fill-opacity:1"
       id="g788">
      <use
         xlink:href="#glyph0-23"
         x="68.686996"
         y="46.098999"
         id="use786"
         width="100%"
         height="100%" />
    </g>
    <g
       style="fill:#000000;fill-opacity:1"
       id="g812">
      <use
         xlink:href="#glyph0-1"
         x="74.772156"
         y="46.098999"
         id="use790"
         width="100%"
         height="100%" />
      <use
         xlink:href="#glyph0-2"
         x="77.539764"
         y="46.098999"
         id="use792"
         width="100%"
         height="100%" />
      <use
         xlink:href="#glyph0-3"
         x="81.442116"
         y="46.098999"
         id="use794"
         width="100%"
         height="100%" />
      <use
         xlink:href="#glyph0-4"
         x="85.869499"
         y="46.098999"
         id="use796"
         width="100%"
         height="100%" />
      <use
         xlink:href="#glyph0-5"
         x="90.296875"
         y="46.098999"
         id="use798"
         width="100%"
         height="100%" />
      <use
         xlink:href="#glyph0-6"
         x="94.171333"
         y="46.098999"
         id="use800"
         width="100%"
         height="100%" />
      <use
         xlink:href="#glyph0-7"
         x="99.152634"
         y="46.098999"
         id="use802"
         width="100%"
         height="100%" />
      <use
         xlink:href="#glyph0-8"
         x="104.68785"
         y="46.098999"
         id="use804"
         width="100%"
         height="100%" />
      <use
         xlink:href="#glyph0-9"
         x="109.66915"
         y="46.098999"
         id="use806"
         width="100%"
         height="100%" />
      <use
         xlink:href="#glyph0-3"
         x="112.43676"
         y="46.098999"
         id="use808"
         width="100%"
         height="100%" />
      <use
         xlink:href="#glyph0-19"
         x="116.86414"
         y="46.098999"
         id="use810"
         width="100%"
         height="100%" />
    </g>
    <g
       style="fill:#000000;fill-opacity:1"
       id="g816">
      <use
         xlink:href="#glyph0-30"
         x="122.95926"
         y="46.098999"
         id="use814"
         width="100%"
         height="100%" />
    </g>
    <g
       style="fill:#000000;fill-opacity:1"
       id="g824">
      <use
         xlink:href="#glyph0-3"
         x="128.76347"
         y="46.098999"
         id="use818"
         width="100%"
         height="100%" />
      <use
         xlink:href="#glyph0-9"
         x="133.19086"
         y="46.098999"
         id="use820"
         width="100%"
         height="100%" />
      <use
         xlink:href="#glyph0-26"
         x="135.95847"
         y="46.098999"
         id="use822"
         width="100%"
         height="100%" />
    </g>
    <g
       style="fill:#000000;fill-opacity:1"
       id="g834">
      <use
         xlink:href="#glyph0-31"
         x="140.67078"
         y="46.098999"
         id="use826"
         width="100%"
         height="100%" />
      <use
         xlink:href="#glyph0-25"
         x="147.86575"
         y="46.098999"
         id="use828"
         width="100%"
         height="100%" />
      <use
         xlink:href="#glyph0-26"
         x="155.61467"
         y="46.098999"
         id="use830"
         width="100%"
         height="100%" />
      <use
         xlink:href="#glyph0-27"
         x="160.59596"
         y="46.098999"
         id="use832"
         width="100%"
         height="100%" />
    </g>
    <g
       style="fill:#000000;fill-opacity:1"
       id="g842">
      <use
         xlink:href="#glyph0-32"
         x="166.95808"
         y="46.098999"
         id="use836"
         width="100%"
         height="100%" />
      <use
         xlink:href="#glyph0-9"
         x="175.25992"
         y="46.098999"
         id="use838"
         width="100%"
         height="100%" />
      <use
         xlink:href="#glyph0-10"
         x="178.02753"
         y="46.098999"
         id="use840"
         width="100%"
         height="100%" />
    </g>
    <g
       style="fill:#000000;fill-opacity:1"
       id="g850">
      <use
         xlink:href="#glyph0-11"
         x="184.11269"
         y="46.098999"
         id="use844"
         width="100%"
         height="100%" />
      <use
         xlink:href="#glyph0-14"
         x="187.98714"
         y="46.098999"
         id="use846"
         width="100%"
         height="100%" />
      <use
         xlink:href="#glyph0-13"
         x="193.52237"
         y="46.098999"
         id="use848"
         width="100%"
         height="100%" />
    </g>
    <g
       style="fill:#000000;fill-opacity:1"
       id="g862">
      <use
         xlink:href="#glyph0-33"
         x="199.33653"
         y="46.098999"
         id="use852"
         width="100%"
         height="100%" />
      <use
         xlink:href="#glyph0-6"
         x="204.87175"
         y="46.098999"
         id="use854"
         width="100%"
         height="100%" />
      <use
         xlink:href="#glyph0-5"
         x="209.85306"
         y="46.098999"
         id="use856"
         width="100%"
         height="100%" />
      <use
         xlink:href="#glyph0-3"
         x="213.72751"
         y="46.098999"
         id="use858"
         width="100%"
         height="100%" />
      <use
         xlink:href="#glyph0-15"
         x="218.15489"
         y="46.098999"
         id="use860"
         width="100%"
         height="100%" />
    </g>
    <g
       style="fill:#000000;fill-opacity:1"
       id="g866">
      <use
         xlink:href="#glyph2-1"
         x="226.623"
         y="46.098999"
         id="use864"
         width="100%"
         height="100%" />
    </g>
    <g
       style="fill:#000000;fill-opacity:1"
       id="g870">
      <use
         xlink:href="#glyph2-2"
         x="225.34779"
         y="46.098999"
         id="use868"
         width="100%"
         height="100%" />
    </g>
    <g
       style="fill:#000000;fill-opacity:1"
       id="g874">
      <use
         xlink:href="#glyph1-4"
         x="235.51801"
         y="46.098999"
         id="use872"
         width="100%"
         height="100%" />
    </g>
    <g
       style="fill:#000000;fill-opacity:1"
       id="g878">
      <use
         xlink:href="#glyph2-1"
         x="249.521"
         y="46.098999"
         id="use876"
         width="100%"
         height="100%" />
    </g>
    <g
       style="fill:#000000;fill-opacity:1"
       id="g882">
      <use
         xlink:href="#glyph2-2"
         x="248.24579"
         y="46.098999"
         id="use880"
         width="100%"
         height="100%" />
    </g>
    <g
       style="fill:#000000;fill-opacity:1"
       id="g886">
      <use
         xlink:href="#glyph1-5"
         x="257.862"
         y="46.098999"
         id="use884"
         width="100%"
         height="100%" />
    </g>
    <g
       style="fill:#000000;fill-opacity:1"
       id="g890">
      <use
         xlink:href="#glyph3-1"
         x="269.01999"
         y="41.268002"
         id="use888"
         width="100%"
         height="100%" />
    </g>
    <g
       style="fill:#000000;fill-opacity:1"
       id="g894">
      <use
         xlink:href="#glyph3-2"
         x="272.89255"
         y="41.268002"
         id="use892"
         width="100%"
         height="100%" />
    </g>
    <g
       style="fill:#000000;fill-opacity:1"
       id="g898">
      <use
         xlink:href="#glyph4-1"
         x="279.62299"
         y="41.268002"
         id="use896"
         width="100%"
         height="100%" />
    </g>
    <g
       style="fill:#000000;fill-opacity:1"
       id="g902">
      <use
         xlink:href="#glyph3-3"
         x="283.77802"
         y="41.268002"
         id="use900"
         width="100%"
         height="100%" />
    </g>
    <g
       style="fill:#000000;fill-opacity:1"
       id="g906">
      <use
         xlink:href="#glyph3-4"
         x="282.73401"
         y="41.268002"
         id="use904"
         width="100%"
         height="100%" />
    </g>
    <g
       style="fill:#000000;fill-opacity:1"
       id="g910">
      <use
         xlink:href="#glyph4-2"
         x="288.68701"
         y="41.268002"
         id="use908"
         width="100%"
         height="100%" />
    </g>
    <path
       style="fill:none;stroke:#000000;stroke-width:0.398;stroke-linecap:butt;stroke-linejoin:miter;stroke-miterlimit:10;stroke-opacity:1"
       d="M -4.6875e-4,-3.75e-4 H 22.780781"
       transform="matrix(1,0,0,-1,269.02,43.609)"
       id="path912" />
    <g
       clip-path="url(#clip4)"
       clip-rule="nonzero"
       id="g918">
      <g
         style="fill:#000000;fill-opacity:1"
         id="g916">
        <use
           xlink:href="#glyph3-1"
           x="275.49799"
           y="49.535"
           id="use914"
           width="100%"
           height="100%" />
      </g>
    </g>
    <g
       style="fill:#000000;fill-opacity:1"
       id="g922">
      <use
         xlink:href="#glyph3-3"
         x="280.41663"
         y="49.535"
         id="use920"
         width="100%"
         height="100%" />
    </g>
    <g
       clip-path="url(#clip5)"
       clip-rule="nonzero"
       id="g928">
      <g
         style="fill:#000000;fill-opacity:1"
         id="g926">
        <use
           xlink:href="#glyph3-4"
           x="279.37265"
           y="49.535"
           id="use924"
           width="100%"
           height="100%" />
      </g>
    </g>
    <g
       style="fill:#000000;fill-opacity:1"
       id="g932">
      <use
         xlink:href="#glyph1-2"
         x="295.20999"
         y="46.098999"
         id="use930"
         width="100%"
         height="100%" />
    </g>
    <g
       style="fill:#000000;fill-opacity:1"
       id="g936">
      <use
         xlink:href="#glyph0-39"
         x="300.19101"
         y="46.098999"
         id="use934"
         width="100%"
         height="100%" />
    </g>
    <g
       style="fill:#000000;fill-opacity:1"
       id="g940">
      <use
         xlink:href="#glyph2-2"
         x="308.49301"
         y="46.098999"
         id="use938"
         width="100%"
         height="100%" />
    </g>
    <g
       style="fill:#000000;fill-opacity:1"
       id="g944">
      <use
         xlink:href="#glyph0-23"
         x="315.89401"
         y="46.098999"
         id="use942"
         width="100%"
         height="100%" />
    </g>
  </g>
</svg>
